%YAML 1.1
%TAG !u! tag:unity3d.com,2011:
--- !u!114 &11400000
MonoBehaviour:
  m_ObjectHideFlags: 0
  m_CorrespondingSourceObject: {fileID: 0}
  m_PrefabInstance: {fileID: 0}
  m_PrefabAsset: {fileID: 0}
  m_GameObject: {fileID: 0}
  m_Enabled: 1
  m_EditorHideFlags: 0
  m_Script: {fileID: 11500000, guid: a6aac642d6584b46bec99ba31bf1f036, type: 3}
  m_Name: TestArtifact 4
  m_EditorClassIdentifier: 
  name: '{X-ray_radiation}'
  description: '{a4Desc}'
  type: 1
  parts: 10
  active: 0
  moneyMultiplier: 0.1
  activeDamageMultiplier: 0
  passiveDamageMultiplier: 0
