%YAML 1.1
%TAG !u! tag:unity3d.com,2011:
--- !u!114 &11400000
MonoBehaviour:
  m_ObjectHideFlags: 0
  m_CorrespondingSourceObject: {fileID: 0}
  m_PrefabInstance: {fileID: 0}
  m_PrefabAsset: {fileID: 0}
  m_GameObject: {fileID: 0}
  m_Enabled: 1
  m_EditorHideFlags: 0
  m_Script: {fileID: 11500000, guid: 70fbf9a463304d2e8e7ae61c56dea490, type: 3}
  m_Name: Enemy0_Boss 2
  m_EditorClassIdentifier: 
  baseHealth: 150
  enemyGameObject: {fileID: 935130235318919836, guid: dc7f912de56f301b591971e38ede8a21,
    type: 3}
  enemyName: '{enemyBossLabel2}'
  killTimer: 30
