%YAML 1.1
%TAG !u! tag:unity3d.com,2011:
--- !u!114 &11400000
MonoBehaviour:
  m_ObjectHideFlags: 0
  m_CorrespondingSourceObject: {fileID: 0}
  m_PrefabInstance: {fileID: 0}
  m_PrefabAsset: {fileID: 0}
  m_GameObject: {fileID: 0}
  m_Enabled: 1
  m_EditorHideFlags: 0
  m_Script: {fileID: 11500000, guid: 78aba11e4f0340ac8764ce06a7392567, type: 3}
  m_Name: Enemy01
  m_EditorClassIdentifier: 
  baseHealth: 5
  enemyGameObject: {fileID: 7324666111487593563, guid: 8284d9ede1464b3489fc01e3f24cc4c6,
    type: 3}
  enemyName: '{enemyLabel1}'
