%YAML 1.1
%TAG !u! tag:unity3d.com,2011:
--- !u!114 &11400000
MonoBehaviour:
  m_ObjectHideFlags: 0
  m_CorrespondingSourceObject: {fileID: 0}
  m_PrefabInstance: {fileID: 0}
  m_PrefabAsset: {fileID: 0}
  m_GameObject: {fileID: 0}
  m_Enabled: 1
  m_EditorHideFlags: 0
  m_Script: {fileID: 11500000, guid: 78aba11e4f0340ac8764ce06a7392567, type: 3}
  m_Name: Enemy07
  m_EditorClassIdentifier: 
  baseHealth: 5
  enemyGameObject: {fileID: 3139189909570293180, guid: acdc463c1f21619409717d39e803c12e,
    type: 3}
  enemyName: '{enemyLabel7}'
