%YAML 1.1
%TAG !u! tag:unity3d.com,2011:
--- !u!114 &11400000
MonoBehaviour:
  m_ObjectHideFlags: 0
  m_CorrespondingSourceObject: {fileID: 0}
  m_PrefabInstance: {fileID: 0}
  m_PrefabAsset: {fileID: 0}
  m_GameObject: {fileID: 0}
  m_Enabled: 1
  m_EditorHideFlags: 0
  m_Script: {fileID: 11500000, guid: 1b58705705ca40838c1ab0889c275d52, type: 3}
  m_Name: Hero03
  m_EditorClassIdentifier: 
  icon: {fileID: 21300000, guid: 54cbcdefb30ad28be93a1e16ec98e4f8, type: 3}
  heroName: '{hero3}'
  description: '{heroDesc4}'
  price: 360
  delay: 10
  weight: 2
  moneyMultiplier: 0.05
  activeDamageMultiplier: 0.07
  passiveDamageMultiplier: 0
  timeDisMultiplier: 0
  rewardMultiplier: 0
