%YAML 1.1
%TAG !u! tag:unity3d.com,2011:
--- !u!114 &11400000
MonoBehaviour:
  m_ObjectHideFlags: 0
  m_CorrespondingSourceObject: {fileID: 0}
  m_PrefabInstance: {fileID: 0}
  m_PrefabAsset: {fileID: 0}
  m_GameObject: {fileID: 0}
  m_Enabled: 1
  m_EditorHideFlags: 0
  m_Script: {fileID: 11500000, guid: 1b58705705ca40838c1ab0889c275d52, type: 3}
  m_Name: Hero05
  m_EditorClassIdentifier: 
  icon: {fileID: 21300000, guid: b7e4dcb1e8acc29c2888a8ad923971de, type: 3}
  heroName: '{hero5}'
  description: '{heroDesc5}'
  price: 8000
  delay: -1
  weight: 4
  moneyMultiplier: 0.2
  activeDamageMultiplier: 0.2
  passiveDamageMultiplier: 0.2
  timeDisMultiplier: 0
  rewardMultiplier: 0
