%YAML 1.1
%TAG !u! tag:unity3d.com,2011:
--- !u!114 &11400000
MonoBehaviour:
  m_ObjectHideFlags: 0
  m_CorrespondingSourceObject: {fileID: 0}
  m_PrefabInstance: {fileID: 0}
  m_PrefabAsset: {fileID: 0}
  m_GameObject: {fileID: 0}
  m_Enabled: 1
  m_EditorHideFlags: 0
  m_Script: {fileID: 11500000, guid: 1b58705705ca40838c1ab0889c275d52, type: 3}
  m_Name: Hero02
  m_EditorClassIdentifier: 
  icon: {fileID: 21300000, guid: 22b01c1f11c375ff1a90c593b8f3db70, type: 3}
  heroName: '{hero2}'
  description: '{heroDesc2}'
  price: 125
  delay: 12
  weight: 1
  moneyMultiplier: 0
  activeDamageMultiplier: 0
  passiveDamageMultiplier: 0.05
  timeDisMultiplier: 0
  rewardMultiplier: 0
