%YAML 1.1
%TAG !u! tag:unity3d.com,2011:
--- !u!114 &11400000
MonoBehaviour:
  m_ObjectHideFlags: 0
  m_CorrespondingSourceObject: {fileID: 0}
  m_PrefabInstance: {fileID: 0}
  m_PrefabAsset: {fileID: 0}
  m_GameObject: {fileID: 0}
  m_Enabled: 1
  m_EditorHideFlags: 0
  m_Script: {fileID: 11500000, guid: 1b58705705ca40838c1ab0889c275d52, type: 3}
  m_Name: Hero04
  m_EditorClassIdentifier: 
  icon: {fileID: 21300000, guid: 6f23b64983472914786d70d20da2cf6d, type: 3}
  heroName: '{hero4}'
  description: '{heroDesc3}'
  price: 1200
  delay: -1
  weight: 3
  moneyMultiplier: 0.15
  activeDamageMultiplier: 0
  passiveDamageMultiplier: 0
  timeDisMultiplier: 0
  rewardMultiplier: 0
