{
"skeleton": {
	"hash": "dQVl5fu9ogplB1LnK6oWaJcZy90",
	"spine": "3.8.95",
	"x": -578.33,
	"y": -92.79,
	"width": 1050,
	"height": 1054,
	"fps": 60,
	"images": "",
	"audio": "C:/Users/anton.teteryuk/Desktop/Вирусы/10"
},
"bones": [
	{ "name": "root", "x": 28.14, "y": -253.26 },
	{ "name": "Hip", "parent": "root", "x": -178.92, "y": 175.11, "color": "ff0000ff" },
	{
		"name": "Body",
		"parent": "Hip",
		"length": 191.16,
		"rotation": 91,
		"x": -0.47,
		"y": -4.25,
		"color": "ff0000ff"
	},
	{
		"name": "Body2",
		"parent": "Body",
		"length": 483.87,
		"rotation": 0.78,
		"x": 189.5,
		"y": 0.03,
		"color": "ff0000ff"
	},
	{
		"name": "Body3",
		"parent": "Hip",
		"length": 298.99,
		"rotation": 7.62,
		"x": -1.97,
		"y": -0.84,
		"color": "ff0000ff"
	},
	{
		"name": "Body4",
		"parent": "Body3",
		"length": 237.03,
		"rotation": 10.16,
		"x": 290.68,
		"y": 2.85,
		"color": "ff0000ff"
	},
	{
		"name": "Barb_r1",
		"parent": "Body2",
		"length": 147.42,
		"rotation": 125.66,
		"x": 258.46,
		"y": 255.72,
		"color": "0025ffff"
	},
	{
		"name": "Barb_r2",
		"parent": "Body2",
		"length": 147.42,
		"rotation": 125.66,
		"x": 198.53,
		"y": 222.24,
		"color": "0025ffff"
	},
	{
		"name": "Barb_l1",
		"parent": "Body2",
		"length": 139.46,
		"rotation": -89.26,
		"x": 264.5,
		"y": -240.66,
		"color": "00ff0eff"
	},
	{
		"name": "Barb_l2",
		"parent": "Body2",
		"length": 139.46,
		"rotation": -125.79,
		"x": 219.24,
		"y": -251.58,
		"color": "00ff0eff"
	},
	{ "name": "Mouth", "parent": "Body2", "rotation": -91.77, "x": 330.31, "y": -72.92, "color": "ff0000ff" },
	{
		"name": "Hair1",
		"parent": "Body2",
		"length": 233.61,
		"rotation": 54.82,
		"x": 428.75,
		"y": 12.15,
		"color": "00beffff"
	},
	{
		"name": "Hair2",
		"parent": "Body2",
		"length": 156.81,
		"rotation": -15.25,
		"x": 435.32,
		"y": -160.09,
		"color": "00beffff"
	},
	{ "name": "Eye_r", "parent": "Body2", "rotation": -91.77, "x": 464.01, "y": 170.75, "color": "e900ffff" },
	{ "name": "Eye_l", "parent": "Body2", "rotation": -91.77, "x": 458.91, "y": -254.71, "color": "e900ffff" },
	{
		"name": "Leg1",
		"parent": "Body",
		"length": 117.56,
		"rotation": 145.68,
		"x": -68.57,
		"y": 155.31,
		"color": "d1ff00ff"
	},
	{
		"name": "Leg2",
		"parent": "Body",
		"length": 117.56,
		"rotation": -160.98,
		"x": -54.69,
		"y": 110.05,
		"color": "d1ff00ff"
	},
	{
		"name": "Leg3",
		"parent": "Body",
		"length": 117.56,
		"rotation": -168.63,
		"x": -97.29,
		"y": 46.02,
		"color": "d1ff00ff"
	},
	{
		"name": "Leg4",
		"parent": "Body3",
		"length": 117.56,
		"rotation": -89.83,
		"x": 74.98,
		"y": -107.78,
		"color": "d1ff00ff"
	},
	{
		"name": "Leg5",
		"parent": "Body3",
		"length": 117.56,
		"rotation": -58.12,
		"x": 96,
		"y": -116.08,
		"color": "d1ff00ff"
	},
	{
		"name": "Leg6",
		"parent": "Body3",
		"length": 117.56,
		"rotation": -38.05,
		"x": 163.83,
		"y": -146.28,
		"color": "d1ff00ff"
	},
	{
		"name": "Leg7",
		"parent": "Body3",
		"length": 164.5,
		"rotation": -96.3,
		"x": 279.7,
		"y": -89.07,
		"color": "d1ff00ff"
	},
	{
		"name": "Leg8",
		"parent": "Body3",
		"length": 117.56,
		"rotation": -110.61,
		"x": 353.44,
		"y": -144.58,
		"color": "d1ff00ff"
	},
	{
		"name": "Leg9",
		"parent": "Body4",
		"length": 117.56,
		"rotation": -91.2,
		"x": 121.78,
		"y": -145.93,
		"color": "d1ff00ff"
	},
	{
		"name": "Leg10",
		"parent": "Body4",
		"length": 117.56,
		"rotation": -39.93,
		"x": 128.24,
		"y": -109.28,
		"color": "d1ff00ff"
	},
	{
		"name": "Leg11",
		"parent": "Body4",
		"length": 117.56,
		"rotation": -26.86,
		"x": 198.97,
		"y": -83.55,
		"color": "d1ff00ff"
	}
],
"slots": [
	{ "name": "Leg4", "bone": "root", "attachment": "Leg4" },
	{ "name": "Leg2", "bone": "root", "attachment": "Leg2" },
	{ "name": "Leg7", "bone": "root", "attachment": "Leg7" },
	{ "name": "Leg9", "bone": "root", "attachment": "Leg9" },
	{ "name": "Leg11", "bone": "root", "attachment": "Leg11" },
	{ "name": "Leg1", "bone": "root", "attachment": "Leg1" },
	{ "name": "Barb_l2", "bone": "root", "attachment": "Barb_l2" },
	{ "name": "Barb_l1", "bone": "root", "attachment": "Barb_l1" },
	{ "name": "Body", "bone": "root", "attachment": "Body" },
	{ "name": "Hair2", "bone": "root", "attachment": "Hair2" },
	{ "name": "Hair1", "bone": "root", "attachment": "Hair1" },
	{ "name": "Eye_l", "bone": "root", "attachment": "Eye_l" },
	{ "name": "Eye_r", "bone": "root", "attachment": "Eye_r" },
	{ "name": "Pupil_l", "bone": "root", "attachment": "Pupil_l" },
	{ "name": "Pupil_r", "bone": "root", "attachment": "Pupil_r" },
	{ "name": "Mouth", "bone": "root", "attachment": "Mouth" },
	{ "name": "Leg6", "bone": "root", "attachment": "Leg6" },
	{ "name": "Leg3", "bone": "root", "attachment": "Leg3" },
	{ "name": "Leg5", "bone": "root", "attachment": "Leg5" },
	{ "name": "Leg8", "bone": "root", "attachment": "Leg8" },
	{ "name": "Leg10", "bone": "root", "attachment": "Leg10" },
	{ "name": "Eyelid_l2", "bone": "root", "attachment": "Eyelid_l2" },
	{ "name": "Eyelid_l1", "bone": "root", "attachment": "Eyelid_l1" },
	{ "name": "Eyelid_r2", "bone": "root", "attachment": "Eyelid_r2" },
	{ "name": "Eyelid_r1", "bone": "root", "attachment": "Eyelid_r1" },
	{ "name": "Barb_r2", "bone": "root", "attachment": "Barb_r2" },
	{ "name": "Barb_r1", "bone": "root", "attachment": "Barb_r1" }
],
"skins": [
	{
		"name": "default",
		"attachments": {
			"Barb_l1": {
				"Barb_l1": {
					"type": "mesh",
					"uvs": [ 1, 1, 0, 1, 0, 0, 1, 0 ],
					"triangles": [ 1, 2, 3, 1, 3, 0 ],
					"vertices": [ 1, 8, 133.61, -80.85, 1, 1, 8, 5.73, -75.25, 1, 1, 8, 10.06, 23.65, 1, 1, 8, 137.94, 18.05, 1 ],
					"hull": 4,
					"edges": [ 0, 2, 2, 4, 4, 6, 0, 6 ],
					"width": 128,
					"height": 99
				}
			},
			"Barb_l2": {
				"Barb_l2": {
					"type": "mesh",
					"uvs": [ 1, 1, 0, 1, 0, 0, 1, 0 ],
					"triangles": [ 1, 2, 3, 1, 3, 0 ],
					"vertices": [ 1, 9, 178.38, -48.52, 1, 1, 9, 78.1, -116.22, 1, 1, 9, -11.43, 16.39, 1, 1, 9, 88.86, 84.09, 1 ],
					"hull": 4,
					"edges": [ 0, 2, 2, 4, 4, 6, 0, 6 ],
					"width": 121,
					"height": 160
				}
			},
			"Barb_r1": {
				"Barb_r1": {
					"type": "mesh",
					"uvs": [ 1, 1, 0, 1, 0, 0, 1, 0 ],
					"triangles": [ 1, 2, 3, 1, 3, 0 ],
					"vertices": [ 1, 6, 57.08, 115.66, 1, 1, 6, 181.75, 20.24, 1, 1, 6, 96.66, -90.93, 1, 1, 6, -28.01, 4.49, 1 ],
					"hull": 4,
					"edges": [ 0, 2, 2, 4, 4, 6, 0, 6 ],
					"width": 157,
					"height": 140
				}
			},
			"Barb_r2": {
				"Barb_r2": {
					"type": "mesh",
					"uvs": [ 1, 1, 0, 1, 0, 0, 1, 0 ],
					"triangles": [ 1, 2, 3, 1, 3, 0 ],
					"vertices": [ 1, 7, 80.45, 119.36, 1, 1, 7, 166.22, 53.72, 1, 1, 7, 62.29, -82.07, 1, 1, 7, -23.48, -16.43, 1 ],
					"hull": 4,
					"edges": [ 0, 2, 2, 4, 4, 6, 0, 6 ],
					"width": 108,
					"height": 171
				}
			},
			"Body": {
				"Body": {
					"type": "mesh",
					"uvs": [ 0.58856, 0.01276, 0.62758, 0.03467, 0.64542, 0.04822, 0.66951, 0.07798, 0.6879, 0.11272, 0.70235, 0.16321, 0.70981, 0.21049, 0.71232, 0.2255, 0.71242, 0.28626, 0.71247, 0.31493, 0.7057, 0.3659, 0.6941, 0.40248, 0.68051, 0.43304, 0.66167, 0.46007, 0.61729, 0.50204, 0.58968, 0.52813, 0.55611, 0.5494, 0.54562, 0.56214, 0.54011, 0.58271, 0.54772, 0.60068, 0.5786, 0.59191, 0.63272, 0.57654, 0.66256, 0.56807, 0.67822, 0.56363, 0.72276, 0.5553, 0.78938, 0.5552, 0.80745, 0.55962, 0.83206, 0.56563, 0.86999, 0.58481, 0.90602, 0.61103, 0.92486, 0.6319, 0.95037, 0.66017, 0.98344, 0.71008, 0.99341, 0.72995, 0.99887, 0.74742, 0.99896, 0.77901, 0.99118, 0.8022, 0.97641, 0.82396, 0.9465, 0.85478, 0.9122, 0.88241, 0.87828, 0.90399, 0.83001, 0.93332, 0.77557, 0.95786, 0.72234, 0.97569, 0.65378, 0.9897, 0.60581, 0.99588, 0.57038, 0.99898, 0.4583, 1, 0.37039, 0.99032, 0.32052, 0.98029, 0.28237, 0.97044, 0.23483, 0.95548, 0.1923, 0.93508, 0.17082, 0.92088, 0.15291, 0.90598, 0.13343, 0.87972, 0.12126, 0.84463, 0.1187, 0.81863, 0.11862, 0.76878, 0.12858, 0.7126, 0.13478, 0.68659, 0.14408, 0.64749, 0.14633, 0.63705, 0.15282, 0.6008, 0.15289, 0.58114, 0.14123, 0.55399, 0.12996, 0.53732, 0.10017, 0.50018, 0.07846, 0.47313, 0.05857, 0.44241, 0.0429, 0.41822, 0.02032, 0.36941, 0.00678, 0.332, 0.00107, 0.29826, 9.5E-4, 0.23563, 0.00626, 0.19913, 0.01446, 0.17191, 0.03312, 0.12761, 0.04792, 0.10592, 0.06751, 0.07927, 0.0943, 0.0567, 0.10627, 0.04842, 0.1426, 0.03401, 0.19923, 0.02177, 0.2349, 0.0189, 0.27488, 0.01656, 0.34671, 0.01236, 0.39801, 0.00677, 0.44938, 0.00116, 0.53648, 9.4E-4, 0.21455, 0.52835, 0.21712, 0.58013, 0.27625, 0.58144, 0.27304, 0.52769, 0.09822, 0.37563, 0.09951, 0.4307, 0.14257, 0.43004, 0.13743, 0.38088, 0.18177, 0.38875, 0.17985, 0.46543, 0.25118, 0.4674, 0.25118, 0.39071, 0.21712, 0.35008, 0.29103, 0.40317, 0.33345, 0.33893, 0.26661, 0.28912, 0.3161, 0.4438, 0.31995, 0.5349, 0.39386, 0.53032, 0.38294, 0.44708, 0.42921, 0.53097, 0.43114, 0.58078, 0.47484, 0.57226, 0.47484, 0.53032, 0.46456, 0.41234, 0.47227, 0.49296, 0.55261, 0.49427, 0.54232, 0.41234, 0.3733, 0.34287, 0.37651, 0.42021, 0.44206, 0.41955, 0.44335, 0.34746, 0.51873, 0.33129, 0.52516, 0.39486, 0.583, 0.39027, 0.57272, 0.32014, 0.60999, 0.37848, 0.61128, 0.46433, 0.64855, 0.45385, 0.65884, 0.387, 0.59623, 0.7545, 0.70454, 0.7262, 0.73297, 0.7186, 0.82436, 0.6903, 0.8494, 0.71791, 0.9083, 0.69582, 0.32206, 0.20791, 0.49896, 0.20186, 0.49836, 0.21215, 0.49777, 0.27632, 0.31969, 0.2739 ],
					"triangles": [ 137, 88, 89, 137, 89, 0, 137, 0, 1, 136, 85, 86, 87, 88, 137, 136, 86, 87, 137, 136, 87, 138, 136, 137, 85, 136, 84, 139, 136, 138, 140, 136, 139, 137, 1, 2, 137, 2, 3, 84, 136, 83, 140, 105, 136, 76, 73, 74, 136, 82, 83, 105, 82, 136, 6, 138, 137, 4, 137, 3, 5, 137, 4, 6, 137, 5, 125, 6, 7, 125, 7, 8, 125, 8, 9, 125, 138, 6, 139, 138, 125, 122, 139, 125, 75, 76, 74, 73, 94, 72, 80, 81, 82, 105, 80, 82, 78, 79, 80, 118, 104, 140, 105, 140, 104, 139, 118, 140, 121, 118, 139, 122, 121, 139, 80, 105, 78, 105, 77, 78, 105, 76, 77, 102, 76, 105, 76, 94, 73, 9, 126, 125, 94, 71, 72, 94, 76, 102, 9, 129, 126, 97, 94, 102, 10, 129, 9, 98, 97, 102, 124, 125, 126, 122, 125, 124, 103, 101, 102, 105, 103, 102, 98, 102, 101, 123, 122, 124, 121, 122, 123, 11, 129, 10, 104, 103, 105, 114, 121, 123, 117, 123, 124, 114, 123, 117, 70, 71, 94, 121, 119, 118, 120, 121, 114, 120, 119, 121, 96, 97, 98, 95, 94, 97, 95, 97, 96, 70, 94, 95, 12, 129, 11, 69, 70, 95, 119, 106, 103, 104, 119, 103, 119, 104, 118, 109, 119, 120, 106, 119, 109, 128, 126, 129, 128, 129, 12, 13, 128, 12, 127, 126, 128, 124, 126, 127, 117, 124, 127, 99, 96, 98, 99, 98, 101, 100, 99, 101, 100, 101, 103, 100, 103, 106, 68, 69, 95, 115, 114, 117, 120, 114, 115, 109, 120, 115, 116, 117, 127, 115, 117, 116, 67, 95, 96, 67, 96, 99, 68, 95, 67, 14, 127, 128, 116, 127, 14, 14, 128, 13, 93, 100, 106, 15, 116, 14, 90, 99, 100, 90, 100, 93, 110, 108, 109, 113, 115, 116, 115, 110, 109, 113, 110, 115, 107, 106, 109, 107, 109, 108, 93, 106, 107, 66, 67, 99, 66, 99, 90, 16, 116, 15, 113, 116, 16, 65, 66, 90, 17, 113, 16, 112, 113, 17, 110, 113, 112, 91, 90, 93, 64, 65, 90, 111, 110, 112, 91, 64, 90, 92, 93, 107, 91, 93, 92, 18, 112, 17, 63, 64, 91, 63, 91, 62, 111, 107, 108, 111, 108, 110, 92, 107, 111, 61, 91, 92, 19, 111, 112, 18, 19, 112, 62, 91, 61, 92, 60, 61, 92, 59, 60, 92, 51, 59, 50, 51, 92, 50, 92, 111, 50, 111, 49, 130, 49, 111, 49, 130, 48, 47, 48, 130, 134, 133, 26, 27, 134, 26, 28, 134, 27, 28, 29, 134, 25, 26, 133, 30, 135, 29, 135, 30, 31, 135, 31, 32, 135, 134, 29, 132, 24, 25, 132, 25, 133, 23, 24, 132, 131, 23, 132, 22, 23, 131, 21, 22, 131, 130, 20, 21, 130, 21, 131, 32, 33, 135, 35, 36, 33, 35, 33, 34, 33, 37, 135, 36, 37, 33, 37, 134, 135, 38, 134, 37, 39, 134, 38, 40, 134, 39, 134, 132, 133, 41, 134, 40, 41, 132, 134, 131, 132, 42, 19, 20, 130, 54, 55, 57, 55, 56, 57, 59, 54, 58, 57, 58, 54, 59, 53, 54, 59, 52, 53, 59, 51, 52, 42, 132, 41, 130, 111, 19, 43, 131, 42, 130, 131, 43, 43, 44, 130, 44, 45, 130, 45, 46, 130, 46, 47, 130 ],
					"vertices": [ 1, 3, 485.2, -225.07, 1, 1, 3, 465.33, -258.65, 1, 1, 3, 453.22, -273.91, 1, 1, 3, 427.01, -294.21, 1, 1, 3, 396.69, -309.39, 1, 1, 3, 352.94, -320.71, 1, 1, 3, 312.15, -325.98, 1, 2, 5, 166.01, 423.42, 1.0E-5, 3, 299.19, -327.78, 0.99999, 2, 5, 150.16, 373.69, 3.9E-4, 3, 247.02, -326.26, 0.99961, 3, 4, 369.35, 372.75, 1.2E-4, 5, 142.68, 350.22, 8.9E-4, 3, 222.4, -325.54, 0.99899, 3, 4, 357.67, 330.14, 0.00128, 5, 123.67, 310.34, 0.00251, 3, 178.83, -318.26, 0.99621, 4, 4, 343.44, 300.34, 0.00349, 5, 104.4, 283.52, 0.00452, 2, 341.37, -305.07, 0, 3, 147.73, -307.13, 0.99199, 4, 4, 328.15, 275.91, 0.00677, 5, 85.05, 262.16, 0.00705, 2, 315.33, -292.71, 4.5E-4, 3, 121.87, -294.42, 0.98573, 4, 4, 308.72, 255.07, 0.01159, 5, 62.25, 245.09, 0.0104, 2, 292.4, -275.81, 0.00207, 3, 99.16, -277.21, 0.97594, 4, 4, 265.4, 224.5, 0.03102, 5, 14.21, 222.63, 0.02267, 2, 257.03, -236.31, 0.01393, 3, 64.33, -237.23, 0.93239, 4, 4, 238.47, 205.48, 0.05422, 5, -15.65, 208.67, 0.03675, 2, 235.04, -211.74, 0.03193, 3, 42.67, -212.37, 0.87711, 4, 4, 206.89, 191.27, 0.10359, 5, -49.24, 200.25, 0.06733, 2, 217.29, -182.02, 0.0717, 3, 25.32, -182.4, 0.75737, 4, 4, 196.34, 181.64, 0.14792, 5, -61.33, 192.63, 0.09756, 2, 206.5, -172.64, 0.10217, 3, 14.67, -172.89, 0.65235, 4, 4, 189.21, 164.77, 0.22902, 5, -71.32, 177.28, 0.1674, 2, 188.92, -167.5, 0.13581, 3, -2.84, -167.51, 0.46777, 4, 4, 193.78, 148.59, 0.30526, 5, -69.68, 160.55, 0.29056, 2, 173.37, -173.91, 0.12575, 3, -18.47, -173.7, 0.27844, 4, 4, 221.58, 152.47, 0.2686, 5, -41.63, 159.46, 0.53085, 2, 180.43, -201.08, 0.06933, 3, -11.78, -200.97, 0.13123, 4, 4, 270.33, 159.27, 0.11401, 5, 7.55, 157.56, 0.81954, 2, 192.81, -248.71, 0.0217, 3, -0.06, -248.77, 0.04475, 4, 4, 297.19, 163.02, 0.04942, 5, 34.66, 156.51, 0.91654, 2, 199.63, -274.97, 0.00999, 3, 6.41, -275.11, 0.02406, 4, 4, 311.3, 164.98, 0.02857, 5, 48.9, 155.95, 0.9478, 2, 203.21, -288.76, 0.00639, 3, 9.8, -288.95, 0.01725, 4, 4, 350.92, 166.91, 0.00207, 5, 88.23, 150.86, 0.99088, 2, 209.69, -327.89, 0.0012, 3, 15.75, -328.16, 0.00585, 2, 5, 143.83, 133.11, 0.99954, 3, 14.03, -386.5, 4.6E-4, 2, 5, 157.75, 124.67, 0.99988, 3, 9.74, -402.21, 1.2E-4, 1, 5, 176.69, 113.17, 1, 1, 5, 203.31, 87.34, 1, 1, 5, 226.49, 56.26, 1, 1, 5, 236.73, 34.14, 1, 1, 5, 250.6, 4.2, 1, 2, 4, 559.64, 4.85, 0.0177, 5, 265.1, -45.47, 0.9823, 2, 4, 566.04, -13.23, 0.02922, 5, 268.2, -64.4, 0.97078, 2, 4, 568.78, -28.73, 0.03989, 5, 268.17, -80.14, 0.96011, 2, 4, 565.27, -55.64, 0.06353, 5, 259.96, -106.01, 0.93647, 2, 4, 555.87, -74.48, 0.08801, 5, 247.39, -122.9, 0.91199, 2, 4, 540.57, -91.29, 0.12229, 5, 229.36, -136.75, 0.87771, 2, 4, 511.09, -114.06, 0.21056, 5, 196.33, -153.96, 0.78944, 2, 4, 478.16, -133.6, 0.33917, 5, 160.47, -167.38, 0.66083, 3, 4, 446.26, -148.03, 0.48586, 5, 126.52, -175.96, 0.51367, 2, -92.16, -458.9, 4.7E-4, 3, 4, 401, -167.4, 0.70134, 5, 78.55, -187.04, 0.29439, 2, -116.62, -416.18, 0.00427, 3, 4, 350.94, -181.98, 0.8696, 5, 26.71, -192.56, 0.11372, 2, -136.87, -368.14, 0.01667, 3, 4, 302.7, -190.98, 0.93334, 5, -22.37, -192.91, 0.02502, 2, -151.37, -321.25, 0.04164, 3, 4, 241.57, -194.95, 0.89486, 5, -83.23, -186.03, 7.0E-5, 2, -162.36, -260.99, 0.10507, 2, 4, 199.21, -194.63, 0.81773, 2, -166.93, -218.88, 0.18227, 2, 4, 168.09, -193.17, 0.73699, 2, -169.06, -187.8, 0.26301, 2, 4, 70.67, -181.02, 0.32139, 2, -168.23, -89.62, 0.67861, 2, 4, -4.56, -162.57, 0.02316, 2, -158.57, -12.76, 0.97684, 2, 4, -46.72, -148.24, 0.0539, 2, -149.2, 30.76, 0.9461, 2, 4, -78.72, -135.43, 0.19618, 2, -140.16, 64.03, 0.80382, 2, 4, -118.29, -117.17, 0.42559, 2, -126.59, 105.44, 0.57441, 2, 4, -152.9, -94.86, 0.60345, 2, -108.42, 142.4, 0.39655, 2, 4, -169.93, -80.27, 0.66881, 2, -95.89, 160.99, 0.33119, 2, 4, -183.79, -65.51, 0.71041, 2, -82.82, 176.46, 0.28959, 3, 4, -197.72, -40.89, 0.74407, 2, -59.97, 193.13, 0.2557, 3, -246.83, 196.46, 2.3E-4, 3, 4, -204.29, -9.6, 0.75259, 2, -29.66, 203.27, 0.24462, 3, -216.38, 206.18, 0.00279, 3, 4, -203.55, 12.83, 0.73852, 2, -7.28, 205.12, 0.25397, 3, -193.99, 207.73, 0.0075, 3, 4, -197.94, 55.28, 0.66123, 2, 35.53, 204.44, 0.30966, 3, -151.18, 206.48, 0.02911, 3, 4, -182.9, 101.96, 0.50193, 2, 83.63, 194.88, 0.4081, 3, -103.22, 196.26, 0.08996, 3, 4, -174.56, 123.39, 0.41199, 2, 105.88, 189.06, 0.44821, 3, -81.05, 190.15, 0.1398, 3, 4, -162.02, 155.6, 0.27706, 2, 139.32, 180.33, 0.46629, 3, -47.73, 180.96, 0.25665, 3, 4, -158.88, 164.23, 0.24368, 2, 148.25, 178.2, 0.45808, 3, -38.83, 178.71, 0.29823, 3, 4, -149.12, 194.34, 0.14082, 2, 179.29, 171.98, 0.38444, 3, -7.89, 172.07, 0.47474, 3, 4, -146.83, 211.06, 0.09494, 2, 196.17, 171.63, 0.31009, 3, 8.99, 171.49, 0.59497, 3, 4, -153.86, 235.54, 0.05089, 2, 219.67, 181.43, 0.20258, 3, 32.62, 180.98, 0.74653, 3, 4, -161.75, 251.04, 0.03257, 2, 234.16, 191.06, 0.14529, 3, 47.24, 190.4, 0.82213, 3, 4, -183.39, 286.12, 0.01134, 2, 266.5, 216.59, 0.06474, 3, 79.93, 215.5, 0.92392, 3, 4, -199.15, 311.67, 0.00474, 2, 290.07, 235.2, 0.03428, 3, 103.74, 233.79, 0.96099, 3, 4, -212.93, 340.14, 0.0015, 2, 316.76, 252.17, 0.016, 3, 130.66, 250.39, 0.9825, 3, 4, -223.77, 362.55, 4.2E-4, 2, 337.77, 265.53, 0.00785, 3, 151.85, 263.47, 0.99173, 2, 2, 380.04, 284.58, 0.00112, 3, 194.37, 281.95, 0.99888, 2, 2, 412.37, 295.87, 5.0E-5, 3, 226.86, 292.8, 0.99995, 1, 3, 255.98, 296.91, 1, 1, 3, 309.75, 295.35, 1, 1, 3, 340.96, 289.73, 1, 1, 3, 364.1, 281.83, 1, 1, 3, 401.63, 264.31, 1, 1, 3, 419.86, 250.78, 1, 1, 3, 442.21, 232.92, 1, 1, 3, 460.86, 208.87, 1, 1, 3, 467.64, 198.16, 1, 1, 3, 479.04, 165.97, 1, 1, 3, 488.01, 116.06, 1, 1, 3, 489.5, 84.75, 1, 1, 3, 490.43, 49.69, 1, 1, 3, 492.09, -13.32, 1, 1, 3, 495.51, -58.38, 1, 1, 3, 498.93, -103.52, 1, 1, 3, 496.76, -179.78, 1, 3, 4, -87.27, 248.85, 0.0288, 2, 240.57, 116.83, 0.16612, 3, 52.65, 116.1, 0.80508, 3, 4, -90.94, 204.47, 0.07212, 2, 196.06, 115.35, 0.3552, 3, 8.12, 115.22, 0.57268, 3, 4, -39.75, 196.49, 0.02523, 2, 194.03, 63.58, 0.40165, 3, 5.4, 63.49, 0.57312, 3, 4, -36.42, 242.62, 0.00961, 2, 240.24, 65.59, 0.10738, 3, 51.63, 64.87, 0.88301, 3, 4, -170.89, 392.39, 1.4E-4, 2, 373.51, 216.43, 0.00424, 3, 186.92, 213.9, 0.99562, 3, 4, -176.05, 345.36, 0.00206, 2, 326.19, 216.13, 0.01927, 3, 139.61, 214.24, 0.97866, 3, 4, -138.58, 340.92, 0.00294, 2, 326.1, 178.41, 0.02376, 3, 139.01, 176.51, 0.9733, 3, 4, -137.45, 383.37, 3.2E-4, 2, 368.4, 182.18, 0.00578, 3, 181.35, 179.71, 0.9939, 3, 4, -99.84, 371.52, 4.8E-4, 2, 360.97, 143.45, 0.0064, 3, 173.4, 141.09, 0.99312, 3, 4, -110.24, 306.46, 0.00842, 2, 295.14, 146.29, 0.05307, 3, 107.61, 144.82, 0.93851, 3, 4, -48.53, 296.5, 0.00369, 2, 292.36, 83.83, 0.02859, 3, 103.99, 82.4, 0.96772, 3, 4, -39.8, 361.79, 6.0E-5, 2, 358.22, 82.69, 0.00124, 3, 169.83, 80.37, 0.9987, 2, 2, 393.64, 111.91, 3.4E-4, 3, 205.64, 109.11, 0.99966, 1, 3, 158.06, 45.81, 1, 1, 3, 212.06, 6.96, 1, 1, 3, 256.64, 64.16, 1, 1, 3, 122.49, 24.94, 1, 3, 4, 3.5, 231.04, 3.1E-4, 2, 233.34, 24.61, 0.02171, 3, 44.17, 23.98, 0.97798, 4, 4, 68.19, 226.36, 0.01868, 5, -179.58, 259.25, 0.00816, 2, 236.15, -40.19, 0.03396, 3, 46.1, -40.85, 0.93919, 3, 4, 68.18, 298.5, 0.00224, 5, -166.86, 330.26, 0.00174, 3, 117.87, -33.5, 0.99602, 4, 4, 98.81, 221.7, 0.04716, 5, -150.26, 249.26, 0.02136, 2, 235.05, -71.15, 0.08396, 3, 44.59, -71.78, 0.84752, 4, 4, 94.81, 179.06, 0.10319, 5, -161.72, 208, 0.03367, 2, 192.24, -72.09, 0.31292, 3, 1.77, -72.15, 0.55022, 4, 4, 133.73, 181.24, 0.15453, 5, -123.02, 203.28, 0.06947, 2, 198.89, -110.5, 0.20295, 3, 7.9, -110.64, 0.57304, 4, 4, 138.5, 216.96, 0.0829, 5, -112.02, 237.6, 0.04343, 2, 234.92, -111.12, 0.09487, 3, 43.91, -111.76, 0.77879, 4, 4, 143.01, 318.6, 0.00792, 5, -89.66, 336.85, 0.00641, 2, 336.4, -103.88, 6.6E-4, 3, 145.48, -105.88, 0.98501, 4, 4, 140.53, 249.07, 0.04341, 5, -104.37, 268.84, 0.02528, 2, 267.04, -109.43, 0.03547, 3, 76.06, -110.5, 0.89584, 4, 4, 210.13, 238.62, 0.04999, 5, -37.7, 246.28, 0.03337, 2, 264.69, -179.77, 0.03008, 3, 72.76, -180.8, 0.88656, 4, 4, 210.53, 309.57, 0.01239, 5, -24.79, 316.05, 0.01013, 2, 335.21, -171.99, 0.00269, 3, 143.38, -173.97, 0.97478, 2, 5, -147.57, 418.08, 6.0E-5, 3, 207.6, -27.82, 0.99994, 3, 4, 65.66, 322.13, 7.0E-4, 5, -165.17, 353.96, 7.6E-4, 3, 141.11, -28.58, 0.99854, 4, 4, 122.66, 315.07, 0.00672, 5, -110.32, 336.97, 0.00534, 2, 330.55, -84.07, 3.2E-4, 3, 139.9, -86, 0.98762, 3, 4, 131.98, 376.31, 6.6E-4, 5, -90.34, 395.6, 0.00114, 3, 201.77, -89.04, 0.9982, 3, 4, 199.27, 381.32, 0.00123, 5, -23.22, 388.66, 0.00191, 3, 213.61, -155.47, 0.99686, 4, 4, 197.61, 326.45, 0.00827, 5, -34.53, 334.94, 0.00727, 2, 350.49, -157.21, 9.8E-4, 3, 158.85, -159.41, 0.98348, 4, 4, 248.36, 323.64, 0.00689, 5, 14.93, 323.22, 0.00671, 2, 353.55, -207.95, 5.7E-4, 3, 161.22, -210.17, 0.98583, 3, 4, 247.41, 384.54, 8.7E-4, 5, 24.74, 383.34, 0.00167, 3, 221.71, -203.03, 0.99746, 4, 4, 273.14, 330.55, 0.00446, 5, 40.54, 325.65, 0.00502, 2, 363.27, -231.76, 1.0E-4, 3, 170.62, -234.12, 0.99041, 4, 4, 264.48, 257.3, 0.02083, 5, 19.09, 255.08, 0.01627, 2, 289.51, -231.61, 0.0071, 3, 96.87, -232.97, 0.9558, 4, 4, 298.04, 261.9, 0.01244, 5, 52.94, 253.69, 0.01095, 2, 297.95, -264.41, 0.00249, 3, 104.86, -265.89, 0.97412, 4, 4, 314.58, 317.62, 0.00348, 5, 79.05, 305.62, 0.00444, 2, 355.21, -274.42, 2.0E-5, 3, 161.98, -276.66, 0.99206, 4, 4, 218.38, 11.99, 0.95263, 5, -69.56, 21.75, 0.04402, 2, 40.52, -214.09, 6.5E-4, 3, -151.86, -212.09, 0.0027, 2, 5, 28.21, 15.94, 0.99919, 3, -130.49, -307.67, 8.1E-4, 2, 5, 53.92, 14.54, 0.99971, 3, -124.74, -332.77, 2.9E-4, 1, 5, 137.58, 13.25, 1, 2, 4, 442.37, 13.74, 0.01746, 5, 151.23, -16.03, 0.98254, 2, 4, 496.02, 25.72, 0.0045, 5, 206.15, -13.71, 0.9955, 1, 3, 324.86, 13.46, 1, 3, 4, 196.84, 493.81, 7.5E-4, 5, -5.77, 499.82, 0.00116, 3, 325.27, -141.59, 0.99809, 3, 4, 195.15, 485.12, 7.7E-4, 5, -8.96, 491.56, 0.0012, 3, 316.45, -140.8, 0.99803, 3, 4, 187.33, 430.56, 9.3E-4, 5, -26.29, 439.23, 0.00145, 3, 261.37, -138.57, 0.99762, 1, 3, 268.27, 17.29, 1 ],
					"hull": 90,
					"edges": [ 0, 178, 0, 2, 2, 4, 4, 6, 6, 8, 8, 10, 10, 12, 12, 14, 18, 20, 20, 22, 22, 24, 24, 26, 30, 32, 32, 34, 34, 36, 36, 38, 46, 48, 48, 50, 54, 56, 56, 58, 62, 64, 64, 66, 66, 68, 68, 70, 70, 72, 72, 74, 74, 76, 76, 78, 78, 80, 80, 82, 82, 84, 84, 86, 86, 88, 88, 90, 90, 92, 92, 94, 94, 96, 96, 98, 98, 100, 100, 102, 102, 104, 104, 106, 106, 108, 108, 110, 110, 112, 112, 114, 114, 116, 116, 118, 122, 124, 124, 126, 126, 128, 128, 130, 130, 132, 140, 142, 142, 144, 144, 146, 146, 148, 148, 150, 150, 152, 152, 154, 154, 156, 156, 158, 158, 160, 160, 162, 162, 164, 164, 166, 166, 168, 176, 178, 38, 40, 40, 42, 132, 134, 134, 136, 26, 28, 28, 30, 14, 16, 16, 18, 172, 174, 174, 176, 168, 170, 170, 172, 136, 138, 138, 140, 118, 120, 120, 122, 180, 182, 182, 184, 184, 186, 186, 180, 188, 190, 190, 192, 192, 194, 194, 188, 196, 198, 198, 200, 200, 202, 202, 196, 204, 206, 206, 208, 208, 210, 210, 204, 212, 214, 214, 216, 216, 218, 212, 218, 220, 222, 222, 224, 224, 226, 226, 220, 228, 230, 230, 232, 232, 234, 234, 228, 236, 238, 238, 240, 240, 242, 242, 236, 244, 246, 246, 248, 248, 250, 250, 244, 252, 254, 254, 256, 256, 258, 258, 252, 38, 260, 260, 262, 42, 44, 44, 46, 262, 44, 46, 264, 264, 266, 266, 50, 50, 52, 52, 54, 52, 268, 268, 270, 58, 60, 60, 62, 270, 60, 272, 274, 276, 278, 278, 280, 280, 272 ],
					"width": 876,
					"height": 859
				}
			},
			"Eye_l": {
				"Eye_l": {
					"type": "mesh",
					"uvs": [ 1, 1, 0, 1, 0, 0, 1, 0 ],
					"triangles": [ 1, 2, 3, 1, 3, 0 ],
					"vertices": [ 1, 14, 69.98, -130.67, 1, 1, 14, -60.02, -130.67, 1, 1, 14, -60.02, -7.67, 1, 1, 14, 69.98, -7.67, 1 ],
					"hull": 4,
					"edges": [ 0, 2, 2, 4, 4, 6, 0, 6 ],
					"width": 130,
					"height": 123
				}
			},
			"Eye_r": {
				"Eye_r": {
					"type": "mesh",
					"uvs": [ 1, 1, 0, 1, 0, 0, 1, 0 ],
					"triangles": [ 1, 2, 3, 1, 3, 0 ],
					"vertices": [ 1, 13, 73.4, -131.62, 1, 1, 13, -56.6, -131.62, 1, 1, 13, -56.6, -8.62, 1, 1, 13, 73.4, -8.62, 1 ],
					"hull": 4,
					"edges": [ 0, 2, 2, 4, 4, 6, 0, 6 ],
					"width": 130,
					"height": 123
				}
			},
			"Eyelid_l1": {
				"Eyelid_l1": {
					"type": "mesh",
					"uvs": [ 1, 1, 0, 1, 0, 0, 1, 0 ],
					"triangles": [ 1, 2, 3, 1, 3, 0 ],
					"vertices": [ 1, 14, 87.98, -82.67, 1, 1, 14, -70.02, -82.67, 1, 1, 14, -70.02, -5.67, 1, 1, 14, 87.98, -5.67, 1 ],
					"hull": 4,
					"edges": [ 0, 2, 2, 4, 4, 6, 0, 6 ],
					"width": 158,
					"height": 77
				}
			},
			"Eyelid_l2": {
				"Eyelid_l2": {
					"type": "mesh",
					"uvs": [ 1, 1, 0, 1, 0, 0, 1, 0 ],
					"triangles": [ 1, 2, 3, 1, 3, 0 ],
					"vertices": [ 1, 14, 61.98, -150.67, 1, 1, 14, -58.02, -150.67, 1, 1, 14, -58.02, -87.67, 1, 1, 14, 61.98, -87.67, 1 ],
					"hull": 4,
					"edges": [ 0, 2, 2, 4, 4, 6, 0, 6 ],
					"width": 120,
					"height": 63
				}
			},
			"Eyelid_r1": {
				"Eyelid_r1": {
					"type": "mesh",
					"uvs": [ 1, 1, 0, 1, 0, 0, 1, 0 ],
					"triangles": [ 1, 2, 3, 1, 3, 0 ],
					"vertices": [ 1, 13, 80.92, -75.62, 1, 1, 13, -63.08, -75.62, 1, 1, 13, -63.08, -5.62, 1, 1, 13, 80.92, -5.62, 1 ],
					"hull": 4,
					"edges": [ 0, 2, 2, 4, 4, 6, 0, 6 ],
					"width": 144,
					"height": 70
				}
			},
			"Eyelid_r2": {
				"Eyelid_r2": {
					"type": "mesh",
					"uvs": [ 1, 1, 0, 1, 0, 0, 1, 0 ],
					"triangles": [ 1, 2, 3, 1, 3, 0 ],
					"vertices": [ 1, 13, 73.4, -153.62, 1, 1, 13, -45.6, -153.62, 1, 1, 13, -45.6, -86.62, 1, 1, 13, 73.4, -86.62, 1 ],
					"hull": 4,
					"edges": [ 0, 2, 2, 4, 4, 6, 0, 6 ],
					"width": 119,
					"height": 67
				}
			},
			"Hair1": {
				"Hair1": {
					"type": "mesh",
					"uvs": [ 1, 1, 0, 1, 0, 0, 1, 0 ],
					"triangles": [ 1, 2, 3, 1, 3, 0 ],
					"vertices": [ 1, 11, -24.68, -3.96, 1, 1, 11, 162.31, 119.37, 1, 1, 11, 252.05, -16.71, 1, 1, 11, 65.06, -140.03, 1 ],
					"hull": 4,
					"edges": [ 0, 2, 2, 4, 4, 6, 0, 6 ],
					"width": 224,
					"height": 163
				}
			},
			"Hair2": {
				"Hair2": {
					"type": "mesh",
					"uvs": [ 1, 1, 0, 1, 0, 0, 1, 0 ],
					"triangles": [ 1, 2, 3, 1, 3, 0 ],
					"vertices": [ 1, 12, -6.48, -46.62, 1, 1, 12, -23.73, 25.34, 1, 1, 12, 149.37, 66.83, 1, 1, 12, 166.62, -5.13, 1 ],
					"hull": 4,
					"edges": [ 0, 2, 2, 4, 4, 6, 0, 6 ],
					"width": 74,
					"height": 178
				}
			},
			"Leg1": {
				"Leg1": {
					"type": "mesh",
					"uvs": [ 1, 1, 0, 1, 0, 0, 1, 0 ],
					"triangles": [ 1, 2, 3, 1, 3, 0 ],
					"vertices": [ 1, 15, 75.91, 80.01, 1, 1, 15, 127.55, 1.46, 1, 1, 15, 0.53, -82.04, 1, 1, 15, -51.1, -3.49, 1 ],
					"hull": 4,
					"edges": [ 0, 2, 2, 4, 4, 6, 0, 6 ],
					"width": 94,
					"height": 152
				}
			},
			"Leg2": {
				"Leg2": {
					"type": "mesh",
					"uvs": [ 1, 1, 0, 1, 0, 0, 1, 0 ],
					"triangles": [ 1, 2, 3, 1, 3, 0 ],
					"vertices": [ 1, 16, 189.43, 5.63, 1, 1, 16, 154.85, -89.26, 1, 1, 16, -39.64, -18.4, 1, 1, 16, -5.07, 76.5, 1 ],
					"hull": 4,
					"edges": [ 0, 2, 2, 4, 4, 6, 0, 6 ],
					"width": 101,
					"height": 207
				}
			},
			"Leg3": {
				"Leg3": {
					"type": "mesh",
					"uvs": [ 1, 1, 0, 1, 0, 0, 1, 0 ],
					"triangles": [ 1, 2, 3, 1, 3, 0 ],
					"vertices": [ 1, 17, 170.01, 16.36, 1, 1, 17, 149.25, -78.39, 1, 1, 17, -32.44, -38.57, 1, 1, 17, -11.68, 56.18, 1 ],
					"hull": 4,
					"edges": [ 0, 2, 2, 4, 4, 6, 0, 6 ],
					"width": 97,
					"height": 186
				}
			},
			"Leg4": {
				"Leg4": {
					"type": "mesh",
					"uvs": [ 1, 1, 0, 1, 0, 0, 1, 0 ],
					"triangles": [ 1, 2, 3, 1, 3, 0 ],
					"vertices": [ 1, 18, 169.43, 27.24, 1, 1, 18, 157.5, -59.94, 1, 1, 18, -48.58, -31.75, 1, 1, 18, -36.65, 55.44, 1 ],
					"hull": 4,
					"edges": [ 0, 2, 2, 4, 4, 6, 0, 6 ],
					"width": 88,
					"height": 208
				}
			},
			"Leg5": {
				"Leg5": {
					"type": "mesh",
					"uvs": [ 1, 1, 0, 1, 0, 0, 1, 0 ],
					"triangles": [ 1, 2, 3, 1, 3, 0 ],
					"vertices": [ 1, 19, 186.28, -32.98, 1, 1, 19, 108.05, -127.9, 1, 1, 19, -42.42, -3.88, 1, 1, 19, 35.81, 91.04, 1 ],
					"hull": 4,
					"edges": [ 0, 2, 2, 4, 4, 6, 0, 6 ],
					"width": 123,
					"height": 195
				}
			},
			"Leg6": {
				"Leg6": {
					"type": "mesh",
					"uvs": [ 1, 1, 0, 1, 0, 0, 1, 0 ],
					"triangles": [ 1, 2, 3, 1, 3, 0 ],
					"vertices": [ 1, 20, 168.2, 7.45, 1, 1, 20, 8.69, -86.26, 1, 1, 20, -47.03, 8.58, 1, 1, 20, 112.48, 102.29, 1 ],
					"hull": 4,
					"edges": [ 0, 2, 2, 4, 4, 6, 0, 6 ],
					"width": 185,
					"height": 110
				}
			},
			"Leg7": {
				"Leg7": {
					"type": "mesh",
					"uvs": [ 1, 1, 0, 1, 0, 0, 1, 0 ],
					"triangles": [ 1, 2, 3, 1, 3, 0 ],
					"vertices": [ 1, 21, 181.71, 35.38, 1, 1, 21, 179.69, -52.6, 1, 1, 21, -27.26, -47.86, 1, 1, 21, -25.24, 40.12, 1 ],
					"hull": 4,
					"edges": [ 0, 2, 2, 4, 4, 6, 0, 6 ],
					"width": 88,
					"height": 207
				}
			},
			"Leg8": {
				"Leg8": {
					"type": "mesh",
					"uvs": [ 1, 1, 0, 1, 0, 0, 1, 0 ],
					"triangles": [ 1, 2, 3, 1, 3, 0 ],
					"vertices": [ 1, 22, 133.98, 80.26, 1, 1, 22, 156.91, -19.13, 1, 1, 22, -11.66, -58.02, 1, 1, 22, -34.59, 41.37, 1 ],
					"hull": 4,
					"edges": [ 0, 2, 2, 4, 4, 6, 0, 6 ],
					"width": 102,
					"height": 173
				}
			},
			"Leg9": {
				"Leg9": {
					"type": "mesh",
					"uvs": [ 1, 1, 0, 1, 0, 0, 1, 0 ],
					"triangles": [ 1, 2, 3, 1, 3, 0 ],
					"vertices": [ 1, 23, 142.24, 55.02, 1, 1, 23, 97.44, -95.46, 1, 1, 23, -143.12, -23.85, 1, 1, 23, -98.33, 126.63, 1 ],
					"hull": 4,
					"edges": [ 0, 2, 2, 4, 4, 6, 0, 6 ],
					"width": 157,
					"height": 251
				}
			},
			"Leg10": {
				"Leg10": {
					"type": "mesh",
					"uvs": [ 1, 1, 0, 1, 0, 0, 1, 0 ],
					"triangles": [ 1, 2, 3, 1, 3, 0 ],
					"vertices": [ 1, 24, 169.46, 3.67, 1, 1, 24, -10.22, -69.48, 1, 1, 24, -44.91, 15.73, 1, 1, 24, 134.78, 88.88, 1 ],
					"hull": 4,
					"edges": [ 0, 2, 2, 4, 4, 6, 0, 6 ],
					"width": 194,
					"height": 92
				}
			},
			"Leg11": {
				"Leg11": {
					"type": "mesh",
					"uvs": [ 1, 1, 0, 1, 0, 0, 1, 0 ],
					"triangles": [ 1, 2, 3, 1, 3, 0 ],
					"vertices": [ 1, 25, 158.48, -42.09, 1, 1, 25, -22.23, -70.99, 1, 1, 25, -42.28, 54.42, 1, 1, 25, 138.42, 83.31, 1 ],
					"hull": 4,
					"edges": [ 0, 2, 2, 4, 4, 6, 0, 6 ],
					"width": 183,
					"height": 127
				}
			},
			"Mouth": {
				"Mouth": {
					"type": "mesh",
					"uvs": [ 1, 1, 0, 1, 0, 0, 1, 0 ],
					"triangles": [ 1, 2, 3, 1, 3, 0 ],
					"vertices": [ 1, 10, 80.71, -41.52, 1, 1, 10, -90.29, -41.52, 1, 1, 10, -90.29, 43.48, 1, 1, 10, 80.71, 43.48, 1 ],
					"hull": 4,
					"edges": [ 0, 2, 2, 4, 4, 6, 0, 6 ],
					"width": 171,
					"height": 85
				}
			},
			"Pupil_l": {
				"Pupil_l": {
					"type": "mesh",
					"uvs": [ 1, 1, 0, 1, 0, 0, 1, 0 ],
					"triangles": [ 1, 2, 3, 1, 3, 0 ],
					"vertices": [ 1, 14, 4.98, -95.67, 1, 1, 14, -25.02, -95.67, 1, 1, 14, -25.02, -59.67, 1, 1, 14, 4.98, -59.67, 1 ],
					"hull": 4,
					"edges": [ 0, 2, 2, 4, 4, 6, 0, 6 ],
					"width": 30,
					"height": 36
				}
			},
			"Pupil_r": {
				"Pupil_r": {
					"type": "mesh",
					"uvs": [ 1, 1, 0, 1, 0, 0, 1, 0 ],
					"triangles": [ 1, 2, 3, 1, 3, 0 ],
					"vertices": [ 1, 13, 18.4, -93.62, 1, 1, 13, -11.6, -93.62, 1, 1, 13, -11.6, -57.62, 1, 1, 13, 18.4, -57.62, 1 ],
					"hull": 4,
					"edges": [ 0, 2, 2, 4, 4, 6, 0, 6 ],
					"width": 30,
					"height": 36
				}
			}
		}
	}
],
"animations": {
	"Damage": {
		"bones": {
			"Hip": {
				"translate": [
					{ "curve": 0.25, "c3": 0.75 },
					{ "time": 0.0833, "x": -49.6, "y": 89.66, "curve": "stepped" },
					{ "time": 0.4167, "x": -49.6, "y": 89.66, "curve": 0.25, "c3": 0.75 },
					{ "time": 0.5833 }
				],
				"scale": [
					{ "curve": 0.25, "c3": 0.75 },
					{ "time": 0.0833, "x": 0.857, "y": 0.857, "curve": "stepped" },
					{ "time": 0.4167, "x": 0.857, "y": 0.857, "curve": 0.25, "c3": 0.75 },
					{ "time": 0.5833 }
				]
			},
			"Body": {
				"rotate": [
					{ "curve": 0.25, "c3": 0.75 },
					{ "time": 0.0833, "angle": 7.66, "curve": 0.25, "c3": 0.75 },
					{ "time": 0.5833 }
				]
			},
			"Body2": {
				"rotate": [
					{ "curve": 0.25, "c3": 0.75 },
					{ "time": 0.0833, "angle": 7.66, "curve": 0.25, "c3": 0.75 },
					{ "time": 0.25, "angle": -26.56, "curve": 0.25, "c3": 0.75 },
					{ "time": 0.5, "angle": 7.44, "curve": 0.25, "c3": 0.75 },
					{ "time": 0.5833 }
				],
				"translate": [
					{ "curve": 0.25, "c3": 0.75 },
					{ "time": 0.0833, "x": -54.07, "y": 5.73, "curve": "stepped" },
					{ "time": 0.25, "x": -54.07, "y": 5.73, "curve": 0.25, "c3": 0.75 },
					{ "time": 0.3333 }
				],
				"scale": [
					{ "curve": 0.25, "c3": 0.75 },
					{ "time": 0.0833, "x": 0.848, "curve": "stepped" },
					{ "time": 0.25, "x": 0.848, "curve": 0.25, "c3": 0.75 },
					{ "time": 0.3333 }
				]
			},
			"Body3": {
				"rotate": [
					{ "curve": 0.25, "c3": 0.75 },
					{ "time": 0.0833, "angle": 7.36, "curve": 0.25, "c3": 0.75 },
					{ "time": 0.25, "angle": -14.4, "curve": 0.25, "c3": 0.75 },
					{ "time": 0.5833 }
				]
			},
			"Body4": {
				"rotate": [
					{ "curve": 0.25, "c3": 0.75 },
					{ "time": 0.0833, "angle": 7.36, "curve": 0.25, "c3": 0.75 },
					{ "time": 0.25, "angle": -14.4, "curve": 0.25, "c3": 0.75 },
					{ "time": 0.5833 }
				]
			},
			"Barb_r1": {
				"translate": [
					{ "curve": 0.25, "c3": 0.75 },
					{ "time": 0.0833, "x": 67.82, "y": 22.74, "curve": 0.25, "c3": 0.75 },
					{ "time": 0.5833 }
				]
			},
			"Barb_r2": {
				"translate": [
					{ "curve": 0.25, "c3": 0.75 },
					{ "time": 0.0833, "x": 67.82, "y": 22.74, "curve": 0.25, "c3": 0.75 },
					{ "time": 0.5833 }
				]
			},
			"Barb_l1": {
				"translate": [
					{ "curve": 0.25, "c3": 0.75 },
					{ "time": 0.0833, "x": 67.82, "y": 22.74, "curve": 0.25, "c3": 0.75 },
					{ "time": 0.5833 }
				]
			},
			"Barb_l2": {
				"translate": [
					{ "curve": 0.25, "c3": 0.75 },
					{ "time": 0.0833, "x": 67.82, "y": 22.74, "curve": 0.25, "c3": 0.75 },
					{ "time": 0.5833 }
				]
			},
			"Mouth": {
				"translate": [
					{ "curve": 0.25, "c3": 0.75 },
					{ "time": 0.0833, "x": 67.82, "y": 22.74, "curve": "stepped" },
					{ "time": 0.3333, "x": 67.82, "y": 22.74, "curve": 0.25, "c3": 0.75 },
					{ "time": 0.5833 }
				],
				"scale": [
					{ "curve": 0.295, "c3": 0.633, "c4": 0.37 },
					{ "time": 0.0833, "x": 0.659, "y": 1.919, "curve": "stepped" },
					{ "time": 0.3333, "x": 0.659, "y": 1.919, "curve": 0.303, "c2": 0.22, "c3": 0.756 },
					{ "time": 0.5833 }
				]
			},
			"Hair1": {
				"translate": [
					{ "curve": 0.25, "c3": 0.75 },
					{ "time": 0.0833, "x": 67.82, "y": 22.74, "curve": 0.25, "c3": 0.75 },
					{ "time": 0.5833 }
				]
			},
			"Hair2": {
				"translate": [
					{ "curve": 0.25, "c3": 0.75 },
					{ "time": 0.0833, "x": 67.82, "y": 22.74, "curve": 0.25, "c3": 0.75 },
					{ "time": 0.5833 }
				]
			},
			"Eye_r": {
				"translate": [
					{ "curve": 0.25, "c3": 0.75 },
					{ "time": 0.0833, "x": 67.82, "y": 22.74, "curve": 0.25, "c3": 0.75 },
					{ "time": 0.5833 }
				]
			},
			"Eye_l": {
				"translate": [
					{ "curve": 0.25, "c3": 0.75 },
					{ "time": 0.0833, "x": 67.82, "y": 22.74, "curve": 0.25, "c3": 0.75 },
					{ "time": 0.5833 }
				]
			},
			"Leg1": {
				"rotate": [
					{ "curve": 0.255, "c3": 0.62, "c4": 0.47 },
					{ "time": 0.25, "angle": 40.73, "curve": 0.367, "c2": 0.46, "c3": 0.754 },
					{ "time": 0.5, "angle": -17.58, "curve": 0.25, "c3": 0.75 },
					{ "time": 0.5833 }
				],
				"translate": [
					{ "curve": 0.25, "c3": 0.75 },
					{ "time": 0.0833, "x": -59.69, "y": -14.84, "curve": 0.25, "c3": 0.75 },
					{ "time": 0.25, "x": 54.06, "y": -32.16, "curve": 0.25, "c3": 0.75 },
					{ "time": 0.5833 }
				]
			},
			"Leg2": {
				"rotate": [
					{ "curve": 0.255, "c3": 0.62, "c4": 0.47 },
					{ "time": 0.25, "angle": 40.73, "curve": 0.367, "c2": 0.46, "c3": 0.754 },
					{ "time": 0.5, "angle": -17.58, "curve": 0.25, "c3": 0.75 },
					{ "time": 0.5833 }
				],
				"translate": [
					{ "curve": 0.25, "c3": 0.75 },
					{ "time": 0.0833, "x": -59.69, "y": -14.84, "curve": 0.25, "c3": 0.75 },
					{ "time": 0.25, "x": 54.06, "y": -32.16, "curve": 0.25, "c3": 0.75 },
					{ "time": 0.5833 }
				]
			},
			"Leg3": {
				"rotate": [
					{ "angle": -16.8, "curve": 0.345, "c2": 0.66, "c3": 0.679 },
					{ "time": 0.0167, "angle": -17.58, "curve": 0.25, "c3": 0.75 },
					{ "time": 0.1, "curve": 0.25, "c3": 0.75 },
					{ "time": 0.35, "angle": 40.73, "curve": 0.361, "c2": 0.43, "c3": 0.74, "c4": 0.94 },
					{ "time": 0.5833, "angle": -16.8 }
				],
				"translate": [
					{ "curve": 0.25, "c3": 0.75 },
					{ "time": 0.0833, "x": 66.56, "y": 13.7, "curve": 0.25, "c3": 0.75 },
					{ "time": 0.25, "x": -43.95, "y": 13.78, "curve": 0.25, "c3": 0.75 },
					{ "time": 0.5833 }
				]
			},
			"Leg4": {
				"rotate": [
					{ "angle": -17.58, "curve": 0.25, "c3": 0.75 },
					{ "time": 0.0833, "curve": 0.25, "c3": 0.75 },
					{ "time": 0.3333, "angle": 40.73, "curve": 0.367, "c2": 0.46, "c3": 0.754 },
					{ "time": 0.5833, "angle": -17.58 }
				],
				"translate": [
					{ "curve": 0.25, "c3": 0.75 },
					{ "time": 0.0833, "x": 8.18, "y": -60.96, "curve": 0.25, "c3": 0.75 },
					{ "time": 0.25, "x": -5.42, "y": 53.3, "curve": 0.25, "c3": 0.75 },
					{ "time": 0.5833 }
				]
			},
			"Leg5": {
				"rotate": [
					{ "angle": 1.55, "curve": 0.275, "c2": 0.1, "c3": 0.631, "c4": 0.53 },
					{ "time": 0.2167, "angle": 40.73, "curve": 0.367, "c2": 0.46, "c3": 0.754 },
					{ "time": 0.4667, "angle": -17.58, "curve": 0.25, "c3": 0.75 },
					{ "time": 0.55, "curve": 0.316, "c3": 0.65, "c4": 0.35 },
					{ "time": 0.5833, "angle": 1.55 }
				],
				"translate": [
					{ "curve": 0.25, "c3": 0.75 },
					{ "time": 0.0833, "x": -6.28, "y": 67.66, "curve": 0.25, "c3": 0.75 },
					{ "time": 0.25, "x": -1.58, "y": -46.04, "curve": 0.25, "c3": 0.75 },
					{ "time": 0.5833 }
				]
			},
			"Leg6": {
				"rotate": [
					{ "angle": -15, "curve": 0.355, "c2": 0.65, "c3": 0.689 },
					{ "time": 0.0333, "angle": -17.58, "curve": 0.25, "c3": 0.75 },
					{ "time": 0.1167, "curve": 0.25, "c3": 0.75 },
					{ "time": 0.3667, "angle": 40.73, "curve": 0.355, "c2": 0.41, "c3": 0.728, "c4": 0.88 },
					{ "time": 0.5833, "angle": -15 }
				],
				"translate": [
					{ "curve": 0.25, "c3": 0.75 },
					{ "time": 0.0833, "x": -6.28, "y": 67.66, "curve": 0.25, "c3": 0.75 },
					{ "time": 0.25, "x": -1.58, "y": -46.04, "curve": 0.25, "c3": 0.75 },
					{ "time": 0.5833 }
				]
			},
			"Leg7": {
				"rotate": [
					{ "angle": -11.11, "curve": 0.363, "c2": 0.44, "c3": 0.755 },
					{ "time": 0.05, "curve": 0.25, "c3": 0.75 },
					{ "time": 0.3, "angle": 40.73, "curve": 0.367, "c2": 0.46, "c3": 0.754 },
					{ "time": 0.55, "angle": -17.58, "curve": 0.258, "c3": 0.619, "c4": 0.45 },
					{ "time": 0.5833, "angle": -11.11 }
				],
				"translate": [
					{ "curve": 0.25, "c3": 0.75 },
					{ "time": 0.0833, "x": 8.18, "y": -60.96, "curve": 0.25, "c3": 0.75 },
					{ "time": 0.25, "x": -5.42, "y": 53.3, "curve": 0.25, "c3": 0.75 },
					{ "time": 0.5833 }
				]
			},
			"Leg8": {
				"rotate": [
					{ "angle": -12.49, "curve": 0.363, "c2": 0.64, "c3": 0.698 },
					{ "time": 0.05, "angle": -17.58, "curve": 0.25, "c3": 0.75 },
					{ "time": 0.1333, "curve": 0.25, "c3": 0.75 },
					{ "time": 0.3833, "angle": 40.73, "curve": 0.351, "c2": 0.39, "c3": 0.717, "c4": 0.84 },
					{ "time": 0.5833, "angle": -12.49 }
				],
				"translate": [
					{ "curve": 0.25, "c3": 0.75 },
					{ "time": 0.0833, "x": -6.28, "y": 67.66, "curve": 0.25, "c3": 0.75 },
					{ "time": 0.25, "x": -1.58, "y": -46.04, "curve": 0.25, "c3": 0.75 },
					{ "time": 0.5833 }
				]
			},
			"Leg9": {
				"rotate": [
					{ "angle": 3.11, "curve": 0.283, "c2": 0.14, "c3": 0.636, "c4": 0.55 },
					{ "time": 0.2, "angle": 40.73, "curve": 0.367, "c2": 0.46, "c3": 0.754 },
					{ "time": 0.45, "angle": -17.58, "curve": 0.25, "c3": 0.75 },
					{ "time": 0.5333, "curve": 0.308, "c3": 0.643, "c4": 0.35 },
					{ "time": 0.5833, "angle": 3.11 }
				],
				"translate": [
					{ "curve": 0.25, "c3": 0.75 },
					{ "time": 0.0833, "x": -10.56, "y": -60.59, "curve": 0.25, "c3": 0.75 },
					{ "time": 0.25, "x": -32.57, "y": 52.35, "curve": 0.25, "c3": 0.75 },
					{ "time": 0.5833 }
				]
			},
			"Leg10": {
				"rotate": [
					{ "angle": 1.55, "curve": 0.275, "c2": 0.1, "c3": 0.631, "c4": 0.53 },
					{ "time": 0.2167, "angle": 40.73, "curve": 0.367, "c2": 0.46, "c3": 0.754 },
					{ "time": 0.4667, "angle": -17.58, "curve": 0.25, "c3": 0.75 },
					{ "time": 0.55, "curve": 0.316, "c3": 0.65, "c4": 0.35 },
					{ "time": 0.5833, "angle": 1.55 }
				],
				"translate": [
					{ "curve": 0.25, "c3": 0.75 },
					{ "time": 0.0833, "x": 14.39, "y": 66.41, "curve": 0.25, "c3": 0.75 },
					{ "time": 0.25, "x": 1.84, "y": -46.03, "curve": 0.25, "c3": 0.75 },
					{ "time": 0.5833 }
				]
			},
			"Leg11": {
				"rotate": [
					{ "angle": -6.47, "curve": 0.381, "c2": 0.55, "c3": 0.742 },
					{ "time": 0.0333, "curve": 0.25, "c3": 0.75 },
					{ "time": 0.2833, "angle": 40.73, "curve": 0.367, "c2": 0.46, "c3": 0.754 },
					{ "time": 0.5333, "angle": -17.58, "curve": 0.245, "c3": 0.637, "c4": 0.56 },
					{ "time": 0.5833, "angle": -6.47 }
				],
				"translate": [
					{ "curve": 0.25, "c3": 0.75 },
					{ "time": 0.0833, "x": -10.56, "y": -60.59, "curve": 0.25, "c3": 0.75 },
					{ "time": 0.25, "x": -32.57, "y": 52.35, "curve": 0.25, "c3": 0.75 },
					{ "time": 0.5833 }
				]
			}
		},
		"deform": {
			"default": {
				"Body": {
					"Body": [
						{ "curve": 0.25, "c3": 0.75 },
						{
							"time": 0.0833,
							"offset": 404,
							"vertices": [ 8.42772, 31.49646, 32.23334, -4.90669, 36.74738, -9.58119, 10.12039, 7.95041, 9.01715, -9.18343, 8.93042, -10.40605, 10.12039, 7.95041, 9.01715, -9.18343, 8.93042, -10.40605, 8.42772, 31.49646, 32.23334, -4.90669, 36.74738, -9.58119, 16.97585, 63.44568, 64.92996, -9.88327, 74.0238, -19.29927, 14.51755, 44.89795, 46.22427, -9.48347, 52.27612, -16.16002, 14.51755, 44.89795, 46.22427, -9.48347, 52.27612, -16.16002, 16.97585, 63.44568, 64.92996, -9.88327, 74.0238, -19.29927, 7.87868, 57.52933, 58.04727, -1.49286, 67.44604, -9.99048, 8.32883, 37.36816, 38.05841, -4.1615, 43.67047, -9.69846, 8.32883, 37.36816, 38.05841, -4.1615, 43.67047, -9.69846, 7.87868, 57.52933, 58.04727, -1.49286, 67.44604, -9.99048, 48.98007, -7.45593, 55.83917, -14.55916, 39.19623, -11.06297, 55.83917, -14.55916, 74.16022, -13.42885, 36.74738, -9.58119, 12.7121, 1.03961, 2.43396, -12.52069, 0.67499, -12.74168, 12.7121, 1.03961, 12.4361, -2.8367, 2.43396, -12.52069, 0.67499, -12.74168, 8.42772, 31.49646, 17.52124, 27.49686, 36.74738, -9.58119, 5.78925, 48.19009, 20.03207, 44.21021, 48.53467, -0.44508, 56.53217, -7.55881, 12.74747, 9.1918, 14.92445, 4.92664, 10.54047, -11.65761, 10.27899, -13.07707, 12.74747, 9.1918, 14.92445, 4.92664, 10.54047, -11.65761, 10.27899, -13.07707, 5.78925, 48.19009, 20.03207, 44.21021, 48.53467, -0.44508, 56.53217, -7.55881, -1.3732, 54.15976, 14.9996, 52.05951, 53.67889, 7.33145, 63.87695, -0.62097, 8.42772, 31.49646, 17.52124, 27.49686, 32.23334, -4.90669, 36.74738, -9.58119, 8.42772, 31.49646, 17.52124, 27.49686, 32.23334, -4.90669, 36.74738, -9.58119, -1.3732, 54.15976, 14.9996, 52.05951, 53.67889, 7.33145, 63.87695, -0.62097, 16.79382, 51.87283, 64.22772, -2.39996, 8.42772, 31.49646, 17.52124, 27.49686, 36.74738, -9.58119, 8.42772, 31.49646, 17.52124, 27.49686, 32.23334, -4.90669, 36.74738, -9.58119, 0.39374, 54.52213, 16.79382, 51.87283, 64.22772, -2.39996, -0.9014, 59.0437, 16.92021, 56.57462, 69.61127, -1.27223, 12.18083, 45.52271, 25.32394, 39.74185, 46.58771, -7.09171, 53.11194, -13.84792, 3.34616, 43.7117, 16.35385, 40.67529, 43.81436, 1.48979, 51.36151, -4.95245, -0.9014, 59.0437, 16.92021, 56.57462, 69.61127, -1.27223, 2.36925, 55.66336, 19.0211, 52.36646, 55.58569, 3.77748, 65.48621, -4.4162, 8.42772, 31.49646, 17.52124, 27.49686, 32.23334, -4.90669, 36.74738, -9.58119, 8.42772, 31.49646, 17.52124, 27.49686, 32.23334, -4.90669, 36.74738, -9.58119, 2.36925, 55.66336, 19.0211, 52.36646, 55.58569, 3.77748, 65.48621, -4.4162, -25.36868, 108.03217, 8.34116, 110.65692, 104.57983, 37.11662, 128.3985, 21.37651, 8.34116, 110.65692, 128.3985, 21.37651, 10.97322, 106.26376, 124.22955, 17.67108, 10.97322, 106.26376, -27.32182, 124.36115, 11.39606, 126.81613, -15.27203, 68.97589, 6.20915, 70.37332, 38.24774, 4.38733, -39.54401, 42.23447, -24.98961, 52.18097, 51.4837, 37.96295, -39.54401, 42.23447, -24.98961, 52.18097, 51.4837, 37.96295, -29.28084, 28.99527, -19.18869, 36.46576, 35.43994, 28.19406, 22.20398, -5.38156 ],
							"curve": 0.25,
							"c3": 0.75
						},
						{
							"time": 0.25,
							"offset": 404,
							"vertices": [ -31.78175, 5.4747, 3.72797, 32.03383, 4.58289, 31.92268, -31.78175, 5.4747, 3.72797, 32.03383, 4.58289, 31.92268, -25.92619, 3.46689, 2.04347, 26.07713, 2.73981, 26.01317, -25.92619, 3.46689, 2.04347, 26.07713, 2.73981, 26.01317, -30.73936, 4.11052, 2.42286, 30.91837, 3.24838, 30.84256, -30.73936, 4.11052, 2.42286, 30.91837, 3.24838, 30.84256, -29.53609, 3.94962, 2.32801, 29.70807, 3.12125, 29.63522, -29.53609, 3.94962, 2.32801, 29.70807, 3.12125, 29.63522, -31.94264, 4.27142, 2.51772, 32.12871, 3.37543, 32.04994, -31.94264, 4.27142, 2.51772, 32.12871, 3.37543, 32.04994, -14.495, 1.93829, 1.14253, 14.57944, 1.53156, 14.54364, -14.495, 1.93829, 1.14253, 14.57944, 1.53156, 14.54364, 2.24451, 36.41214, 3.21695, 36.33916, 2.35834, 22.39119, -0.05731, 11.04887, 2.35834, 22.39119, 3.18475, 30.23894, -30.13774, 4.03008, 2.37546, 30.31326, 3.18475, 30.23894, -15.0966, 2.01874, -14.80003, 3.59682, 1.18995, 15.18454, 1.59515, 15.14726, -15.0966, 2.01874, -14.80003, 3.59682, 1.59515, 15.14726, -29.53606, 3.94961, -28.95602, 7.037, 2.32802, 29.70805, 3.12122, 29.63519, -29.53606, 3.94961, -28.95602, 7.037, 2.32802, 29.70805, 3.12122, 29.63519, -15.61783, 2.70084, -15.24655, 4.33, 1.84251, 15.74232, 2.26242, 15.68736, -15.61783, 2.70084, -15.24655, 4.33, 1.84251, 15.74232, 2.26242, 15.68736, -37.35745, 4.99551, -36.62383, 8.90045, 2.94447, 37.57498, 3.94778, 37.48285, -37.35745, 4.99551, -36.62383, 8.90045, 2.94447, 37.57498, 3.94778, 37.48285, -14.495, 1.9383, -14.21024, 3.45348, 1.14253, 14.57947, 1.53156, 14.54364, -14.495, 1.9383, -14.21024, 3.45348, 1.14253, 14.57947, 1.53156, 14.54364, -31.31532, 7.61037, 3.37555, 32.04988, -31.94264, 4.27143, -31.31532, 7.61037, 3.37555, 32.04988, -12.80566, 14.57283, -11.19995, 15.84009, 13.85078, 13.58426, 14.2081, 13.20886, -12.80566, 14.57283, -11.19995, 15.84009, 14.2081, 13.20886, -27.1295, 3.62781, -26.59673, 6.46365, 2.86688, 27.22057, -27.1295, 3.62781, -26.59673, 6.46365, 2.13833, 27.28749, 2.86688, 27.22057, -12.69006, 1.69695, -12.44073, 3.02347, 1.00028, 12.76405, 1.34076, 12.73267, -12.69006, 1.69695, -12.44073, 3.02347, 1.34076, 12.73267, -22.31636, 2.98418, -21.87807, 5.3169, 1.75895, 22.44627, 2.35834, 22.39119, -22.31636, 2.98418, -21.87807, 5.3169, 1.75895, 22.44627, 2.35834, 22.39119, -1.86057, 0.24885, -1.82367, 0.4434, 0.14678, 1.87138, 0.19598, 1.86691, -1.86057, 0.24885, -1.82367, 0.4434, 0.14678, 1.87138, 0.19598, 1.86691, 15.43188, -48.37012, 23.7135, -47.80629, -48.677, 6.39516, -57.74155, -27.94641, 23.7135, -47.80629, -57.74155, -27.94641, 18.7694, -32.72813, -40.68423, -21.42703, 18.7694, -32.72813, 7.10422, -11.70203, 12.69574, -11.85493, 7.10422, -11.70203, 12.69574, -11.85493, 34.10358, 19.51152, -13.2029, 28.02586, -15.18605, 31.07625, 34.10358, 19.51152, -16.32372, 25.04817, -18.07793, 27.87605, 29.87845, 21.91258, -13.244, 21.07072, -14.71249, 24.13701, 26.08749, 18.04381, 26.71112, 19.14323 ],
							"curve": 0.25,
							"c3": 0.75
						},
						{ "time": 0.5833 }
					]
				},
				"Eyelid_l1": {
					"Eyelid_l1": [
						{ "curve": 0.25, "c3": 0.75 },
						{
							"time": 0.0833,
							"vertices": [ -18.91231, -60.32996, 9.76055, -22.70325, -9.59494, 12.36108, 2.84434, 6.74463 ],
							"curve": "stepped"
						},
						{
							"time": 0.25,
							"vertices": [ -18.91231, -60.32996, 9.76055, -22.70325, -9.59494, 12.36108, 2.84434, 6.74463 ],
							"curve": 0.25,
							"c3": 0.75
						},
						{ "time": 0.3333 }
					]
				},
				"Eyelid_l2": {
					"Eyelid_l2": [
						{ "curve": 0.25, "c3": 0.75 },
						{
							"time": 0.0833,
							"offset": 4,
							"vertices": [ 2.1537, 43.83215, 2.1537, 43.83215 ],
							"curve": "stepped"
						},
						{
							"time": 0.25,
							"offset": 4,
							"vertices": [ 2.1537, 43.83215, 2.1537, 43.83215 ],
							"curve": 0.25,
							"c3": 0.75
						},
						{ "time": 0.3333 }
					]
				},
				"Eyelid_r1": {
					"Eyelid_r1": [
						{ "curve": 0.25, "c3": 0.75 },
						{
							"time": 0.0833,
							"vertices": [ -7.85898, -43.02466, 12.16998, -49.8158, -20.21704, 0.64429, 20.27203, 3.32397 ],
							"curve": "stepped"
						},
						{
							"time": 0.25,
							"vertices": [ -7.85898, -43.02466, 12.16998, -49.8158, -20.21704, 0.64429, 20.27203, 3.32397 ],
							"curve": 0.25,
							"c3": 0.75
						},
						{ "time": 0.3333 }
					]
				},
				"Eyelid_r2": {
					"Eyelid_r2": [
						{ "curve": 0.25, "c3": 0.75 },
						{
							"time": 0.0833,
							"offset": 4,
							"vertices": [ -0.48224, 82.16992, -3.50427, 43.16858 ],
							"curve": "stepped"
						},
						{
							"time": 0.25,
							"offset": 4,
							"vertices": [ -0.48224, 82.16992, -3.50427, 43.16858 ],
							"curve": 0.25,
							"c3": 0.75
						},
						{ "time": 0.3333 }
					]
				}
			}
		}
	},
	"Idle": {
		"bones": {
			"Hip": {
				"translate": [
					{ "y": -151.42, "curve": 0.25, "c3": 0.75 },
					{ "time": 1, "y": 22.81, "curve": 0.25, "c3": 0.75 },
					{ "time": 2, "y": -151.42 }
				]
			},
			"Body3": {
				"rotate": [
					{ "curve": 0.25, "c3": 0.75 },
					{ "time": 1, "angle": -14.51, "curve": 0.25, "c3": 0.75 },
					{ "time": 2 }
				]
			},
			"Body4": {
				"rotate": [
					{ "angle": -4.12, "curve": 0.382, "c2": 0.57, "c3": 0.735 },
					{ "time": 0.3333, "curve": 0.25, "c3": 0.75 },
					{ "time": 1.3333, "angle": -14.51, "curve": 0.243, "c3": 0.649, "c4": 0.6 },
					{ "time": 2, "angle": -4.12 }
				]
			},
			"Body": {
				"rotate": [
					{ "angle": 3.48, "curve": 0.25, "c3": 0.75 },
					{ "time": 1, "angle": -6.12, "curve": 0.25, "c3": 0.75 },
					{ "time": 2, "angle": 3.48 }
				]
			},
			"Body2": {
				"rotate": [
					{ "angle": 0.76, "curve": 0.382, "c2": 0.57, "c3": 0.735 },
					{ "time": 0.3333, "angle": 3.48, "curve": 0.25, "c3": 0.75 },
					{ "time": 1.3333, "angle": -6.12, "curve": 0.243, "c3": 0.649, "c4": 0.6 },
					{ "time": 2, "angle": 0.76 }
				],
				"translate": [
					{ "x": -5.15, "y": -2.43, "curve": 0.382, "c2": 0.57, "c3": 0.735 },
					{ "time": 0.3333, "x": 16.35, "y": -1.28, "curve": 0.25, "c3": 0.75 },
					{ "time": 1.3333, "x": -59.4, "y": -5.33, "curve": 0.243, "c3": 0.649, "c4": 0.6 },
					{ "time": 2, "x": -5.15, "y": -2.43 }
				]
			},
			"Barb_r2": {
				"translate": [
					{ "x": 1.99, "y": 18.85, "curve": 0.25, "c3": 0.75 },
					{ "time": 1, "x": 3.83, "y": -28.17, "curve": 0.25, "c3": 0.75 },
					{ "time": 2, "x": 1.99, "y": 18.85 }
				]
			},
			"Barb_r1": {
				"translate": [
					{ "x": 1.98, "y": 18.85, "curve": 0.25, "c3": 0.75 },
					{ "time": 1, "x": 3.83, "y": -28.17, "curve": 0.25, "c3": 0.75 },
					{ "time": 2, "x": 1.98, "y": 18.85 }
				]
			},
			"Eye_r": {
				"translate": [
					{ "x": 1.98, "y": 18.85, "curve": 0.25, "c3": 0.75 },
					{ "time": 1, "x": 3.83, "y": -28.17, "curve": 0.25, "c3": 0.75 },
					{ "time": 2, "x": 1.98, "y": 18.85 }
				]
			},
			"Hair1": {
				"translate": [
					{ "x": 1.98, "y": 18.85, "curve": 0.25, "c3": 0.75 },
					{ "time": 1, "x": 3.83, "y": -28.17, "curve": 0.25, "c3": 0.75 },
					{ "time": 2, "x": 1.98, "y": 18.85 }
				]
			},
			"Hair2": {
				"translate": [
					{ "x": 1.98, "y": 18.85, "curve": 0.25, "c3": 0.75 },
					{ "time": 1, "x": 3.83, "y": -28.17, "curve": 0.25, "c3": 0.75 },
					{ "time": 2, "x": 1.98, "y": 18.85 }
				]
			},
			"Mouth": {
				"translate": [
					{ "x": 1.98, "y": 18.85, "curve": 0.25, "c3": 0.75 },
					{ "time": 1, "x": 3.83, "y": -28.17, "curve": 0.25, "c3": 0.75 },
					{ "time": 2, "x": 1.98, "y": 18.85 }
				]
			},
			"Eye_l": {
				"translate": [
					{ "x": 1.98, "y": 18.85, "curve": 0.25, "c3": 0.75 },
					{ "time": 1, "x": 3.83, "y": -28.16, "curve": 0.25, "c3": 0.75 },
					{ "time": 2, "x": 1.98, "y": 18.85 }
				]
			},
			"Barb_l1": {
				"translate": [
					{ "x": 3.83, "y": -28.17, "curve": 0.25, "c3": 0.75 },
					{ "time": 1, "x": 1.98, "y": 18.85, "curve": 0.25, "c3": 0.75 },
					{ "time": 2, "x": 3.83, "y": -28.17 }
				]
			},
			"Barb_l2": {
				"translate": [
					{ "x": 3.83, "y": -28.16, "curve": 0.25, "c3": 0.75 },
					{ "time": 1, "x": 1.98, "y": 18.85, "curve": 0.25, "c3": 0.75 },
					{ "time": 2, "x": 3.83, "y": -28.16 }
				]
			},
			"Leg3": {
				"rotate": [
					{ "angle": -28.64, "curve": 0.382, "c2": 0.58, "c3": 0.731 },
					{ "time": 0.15, "angle": -40.58, "curve": 0.25, "c3": 0.75 },
					{ "time": 0.65, "angle": 8.75, "curve": 0.25, "c3": 0.75 },
					{ "time": 1.15, "angle": -40.58, "curve": 0.25, "c3": 0.75 },
					{ "time": 1.65, "angle": 8.75, "curve": 0.243, "c3": 0.655, "c4": 0.63 },
					{ "time": 2, "angle": -28.64 }
				],
				"translate": [
					{ "x": 22.26, "y": -1.74, "curve": 0.25, "c3": 0.75 },
					{ "time": 1, "x": -6.05, "y": -2.58, "curve": 0.25, "c3": 0.75 },
					{ "time": 2, "x": 22.26, "y": -1.74 }
				]
			},
			"Leg5": {
				"rotate": [
					{ "angle": -15.92, "curve": 0.375, "c2": 0.5, "c3": 0.75 },
					{ "time": 0.25, "angle": 8.75, "curve": 0.25, "c3": 0.75 },
					{ "time": 0.75, "angle": -40.58, "curve": 0.25, "c3": 0.75 },
					{ "time": 1.25, "angle": 8.75, "curve": 0.25, "c3": 0.75 },
					{ "time": 1.75, "angle": -40.58, "curve": 0.25, "c3": 0.625, "c4": 0.5 },
					{ "time": 2, "angle": -15.92 }
				],
				"translate": [
					{ "x": 2.96, "y": 22.13, "curve": 0.25, "c3": 0.75 },
					{ "time": 1, "x": 3.81, "y": -6.07, "curve": 0.25, "c3": 0.75 },
					{ "time": 2, "x": 2.96, "y": 22.13 }
				]
			},
			"Leg6": {
				"rotate": [
					{ "angle": -26.58, "curve": 0.382, "c2": 0.57, "c3": 0.735 },
					{ "time": 0.1667, "angle": -40.58, "curve": 0.25, "c3": 0.75 },
					{ "time": 0.6667, "angle": 8.75, "curve": 0.25, "c3": 0.75 },
					{ "time": 1.1667, "angle": -40.58, "curve": 0.25, "c3": 0.75 },
					{ "time": 1.6667, "angle": 8.75, "curve": 0.243, "c3": 0.649, "c4": 0.6 },
					{ "time": 2, "angle": -26.58 }
				],
				"translate": [
					{ "x": 2.96, "y": 22.13, "curve": 0.25, "c3": 0.75 },
					{ "time": 1, "x": 3.81, "y": -6.07, "curve": 0.25, "c3": 0.75 },
					{ "time": 2, "x": 2.96, "y": 22.13 }
				]
			},
			"Leg8": {
				"rotate": [
					{ "angle": -37.16, "curve": 0.366, "c2": 0.63, "c3": 0.703 },
					{ "time": 0.0667, "angle": -40.58, "curve": 0.25, "c3": 0.75 },
					{ "time": 0.5667, "angle": 8.75, "curve": 0.25, "c3": 0.75 },
					{ "time": 1.0667, "angle": -40.58, "curve": 0.25, "c3": 0.75 },
					{ "time": 1.5667, "angle": 8.75, "curve": 0.244, "c3": 0.7, "c4": 0.79 },
					{ "time": 2, "angle": -37.16 }
				],
				"translate": [
					{ "x": 2.96, "y": 22.13, "curve": 0.25, "c3": 0.75 },
					{ "time": 1, "x": 3.81, "y": -6.07, "curve": 0.25, "c3": 0.75 },
					{ "time": 2, "x": 2.96, "y": 22.13 }
				]
			},
			"Leg10": {
				"rotate": [
					{ "angle": -37.16, "curve": 0.3, "c2": 0.21, "c3": 0.756 },
					{ "time": 0.4333, "angle": 8.75, "curve": 0.25, "c3": 0.75 },
					{ "time": 0.9333, "angle": -40.58, "curve": 0.25, "c3": 0.75 },
					{ "time": 1.4333, "angle": 8.75, "curve": 0.25, "c3": 0.75 },
					{ "time": 1.9333, "angle": -40.58, "curve": 0.297, "c3": 0.634, "c4": 0.37 },
					{ "time": 2, "angle": -37.16 }
				],
				"translate": [
					{ "x": 5.27, "y": 21.7, "curve": 0.25, "c3": 0.75 },
					{ "time": 1, "x": 5.14, "y": -6.29, "curve": 0.25, "c3": 0.75 },
					{ "time": 2, "x": 5.27, "y": 21.7 }
				]
			},
			"Leg1": {
				"rotate": [
					{ "angle": -40.58, "curve": 0.25, "c3": 0.75 },
					{ "time": 0.5, "angle": 8.75, "curve": 0.25, "c3": 0.75 },
					{ "time": 1, "angle": -40.58, "curve": 0.25, "c3": 0.75 },
					{ "time": 1.5, "angle": 8.75, "curve": 0.25, "c3": 0.75 },
					{ "time": 2, "angle": -40.58 }
				],
				"translate": [
					{ "x": -7.42, "y": 0.58, "curve": 0.25, "c3": 0.75 },
					{ "time": 1, "x": 11.86, "y": 1.06, "curve": 0.25, "c3": 0.75 },
					{ "time": 2, "x": -7.42, "y": 0.58 }
				]
			},
			"Leg2": {
				"rotate": [
					{ "angle": -20.26, "curve": 0.38, "c2": 0.53, "c3": 0.745 },
					{ "time": 0.2167, "angle": -40.58, "curve": 0.25, "c3": 0.75 },
					{ "time": 0.7167, "angle": 8.75, "curve": 0.25, "c3": 0.75 },
					{ "time": 1.2167, "angle": -40.58, "curve": 0.25, "c3": 0.75 },
					{ "time": 1.7167, "angle": 8.75, "curve": 0.246, "c3": 0.633, "c4": 0.54 },
					{ "time": 2, "angle": -20.26 }
				],
				"translate": [
					{ "x": -7.42, "y": 0.58, "curve": 0.25, "c3": 0.75 },
					{ "time": 1, "x": 11.86, "y": 1.06, "curve": 0.25, "c3": 0.75 },
					{ "time": 2, "x": -7.42, "y": 0.58 }
				]
			},
			"Leg4": {
				"rotate": [
					{ "angle": -40.58, "curve": 0.25, "c3": 0.75 },
					{ "time": 0.5, "angle": 8.75, "curve": 0.25, "c3": 0.75 },
					{ "time": 1, "angle": -40.58, "curve": 0.25, "c3": 0.75 },
					{ "time": 1.5, "angle": 8.75, "curve": 0.25, "c3": 0.75 },
					{ "time": 2, "angle": -40.58 }
				],
				"translate": [
					{ "x": -0.99, "y": -7.38, "curve": 0.25, "c3": 0.75 },
					{ "time": 1, "x": -1.43, "y": 11.83, "curve": 0.25, "c3": 0.75 },
					{ "time": 2, "x": -0.99, "y": -7.38 }
				]
			},
			"Leg7": {
				"rotate": [
					{ "angle": -15.92, "curve": 0.375, "c2": 0.5, "c3": 0.75 },
					{ "time": 0.25, "angle": 8.75, "curve": 0.25, "c3": 0.75 },
					{ "time": 0.75, "angle": -40.58, "curve": 0.25, "c3": 0.75 },
					{ "time": 1.25, "angle": 8.75, "curve": 0.25, "c3": 0.75 },
					{ "time": 1.75, "angle": -40.58, "curve": 0.25, "c3": 0.625, "c4": 0.5 },
					{ "time": 2, "angle": -15.92 }
				],
				"translate": [
					{ "x": -0.99, "y": -7.38, "curve": 0.25, "c3": 0.75 },
					{ "time": 1, "x": -1.43, "y": 11.83, "curve": 0.25, "c3": 0.75 },
					{ "time": 2, "x": -0.99, "y": -7.38 }
				]
			},
			"Leg9": {
				"rotate": [
					{ "angle": -40.58, "curve": 0.25, "c3": 0.75 },
					{ "time": 0.5, "angle": 8.75, "curve": 0.25, "c3": 0.75 },
					{ "time": 1, "angle": -40.58, "curve": 0.25, "c3": 0.75 },
					{ "time": 1.5, "angle": 8.75, "curve": 0.25, "c3": 0.75 },
					{ "time": 2, "angle": -40.58 }
				],
				"translate": [
					{ "x": -1.76, "y": -7.23, "curve": 0.25, "c3": 0.75 },
					{ "time": 1, "x": -1.48, "y": 11.82, "curve": 0.25, "c3": 0.75 },
					{ "time": 2, "x": -1.76, "y": -7.23 }
				]
			},
			"Leg11": {
				"rotate": [
					{ "angle": -30.59, "curve": 0.337, "c2": 0.35, "c3": 0.758 },
					{ "time": 0.3667, "angle": 8.75, "curve": 0.25, "c3": 0.75 },
					{ "time": 0.8667, "angle": -40.58, "curve": 0.25, "c3": 0.75 },
					{ "time": 1.3667, "angle": 8.75, "curve": 0.25, "c3": 0.75 },
					{ "time": 1.8667, "angle": -40.58, "curve": 0.273, "c3": 0.62, "c4": 0.41 },
					{ "time": 2, "angle": -30.59 }
				],
				"translate": [
					{ "x": -1.76, "y": -7.23, "curve": 0.25, "c3": 0.75 },
					{ "time": 1, "x": -1.48, "y": 11.82, "curve": 0.25, "c3": 0.75 },
					{ "time": 2, "x": -1.76, "y": -7.23 }
				]
			}
		},
		"deform": {
			"default": {
				"Body": {
					"Body": [
						{
							"offset": 404,
							"vertices": [ -31.78175, 5.4747, 3.72797, 32.03383, 4.58289, 31.92268, -31.78175, 5.4747, 3.72797, 32.03383, 4.58289, 31.92268, -25.92619, 3.46689, 2.04347, 26.07713, 2.73981, 26.01317, -25.92619, 3.46689, 2.04347, 26.07713, 2.73981, 26.01317, -30.73936, 4.11052, 2.42286, 30.91837, 3.24838, 30.84256, -30.73936, 4.11052, 2.42286, 30.91837, 3.24838, 30.84256, -29.53609, 3.94962, 2.32801, 29.70807, 3.12125, 29.63522, -29.53609, 3.94962, 2.32801, 29.70807, 3.12125, 29.63522, -31.94264, 4.27142, 2.51772, 32.12871, 3.37543, 32.04994, -31.94264, 4.27142, 2.51772, 32.12871, 3.37543, 32.04994, -14.495, 1.93829, 1.14253, 14.57944, 1.53156, 14.54364, -14.495, 1.93829, 1.14253, 14.57944, 1.53156, 14.54364, 2.24451, 36.41214, 3.21695, 36.33916, 2.35834, 22.39119, -0.05731, 11.04887, 2.35834, 22.39119, 3.18475, 30.23894, -30.13774, 4.03008, 2.37546, 30.31326, 3.18475, 30.23894, -15.0966, 2.01874, -14.80003, 3.59682, 1.18995, 15.18454, 1.59515, 15.14726, -15.0966, 2.01874, -14.80003, 3.59682, 1.59515, 15.14726, -29.53606, 3.94961, -28.95602, 7.037, 2.32802, 29.70805, 3.12122, 29.63519, -29.53606, 3.94961, -28.95602, 7.037, 2.32802, 29.70805, 3.12122, 29.63519, -15.61783, 2.70084, -15.24655, 4.33, 1.84251, 15.74232, 2.26242, 15.68736, -15.61783, 2.70084, -15.24655, 4.33, 1.84251, 15.74232, 2.26242, 15.68736, -37.35745, 4.99551, -36.62383, 8.90045, 2.94447, 37.57498, 3.94778, 37.48285, -37.35745, 4.99551, -36.62383, 8.90045, 2.94447, 37.57498, 3.94778, 37.48285, -14.495, 1.9383, -14.21024, 3.45348, 1.14253, 14.57947, 1.53156, 14.54364, -14.495, 1.9383, -14.21024, 3.45348, 1.14253, 14.57947, 1.53156, 14.54364, -31.31532, 7.61037, 3.37555, 32.04988, -31.94264, 4.27143, -31.31532, 7.61037, 3.37555, 32.04988, -12.80566, 14.57283, -11.19995, 15.84009, 13.85078, 13.58426, 14.2081, 13.20886, -12.80566, 14.57283, -11.19995, 15.84009, 14.2081, 13.20886, -27.1295, 3.62781, -26.59673, 6.46365, 2.86688, 27.22057, -27.1295, 3.62781, -26.59673, 6.46365, 2.13833, 27.28749, 2.86688, 27.22057, -12.69006, 1.69695, -12.44073, 3.02347, 1.00028, 12.76405, 1.34076, 12.73267, -12.69006, 1.69695, -12.44073, 3.02347, 1.34076, 12.73267, -22.31636, 2.98418, -21.87807, 5.3169, 1.75895, 22.44627, 2.35834, 22.39119, -22.31636, 2.98418, -21.87807, 5.3169, 1.75895, 22.44627, 2.35834, 22.39119, -1.86057, 0.24885, -1.82367, 0.4434, 0.14678, 1.87138, 0.19598, 1.86691, -1.86057, 0.24885, -1.82367, 0.4434, 0.14678, 1.87138, 0.19598, 1.86691, 3.54669, 26.5238, 6.31932, 26.00298, 26.67825, -2.09032, 26.61298, -2.80313, 6.31932, 26.00298, 26.61298, -2.80313, 6.31932, 26.00298, 26.61298, -2.80313, 6.31932, 26.00298, 3.54669, 26.5238, 6.31932, 26.00298, 3.54669, 26.5238, 6.31932, 26.00298, -0.70007, 22.88148, -22.89186, -0.05946, -22.7709, 2.35075, -0.70007, 22.88148, -22.89186, -0.05946, -22.7709, 2.35075, -0.70007, 22.88148, -22.89186, -0.05946, -22.7709, 2.35075, -0.70007, 22.88148, -0.70007, 22.88148 ],
							"curve": 0.25,
							"c3": 0.75
						},
						{
							"time": 1,
							"offset": 404,
							"vertices": [ 7.95963, -0.85114, -1.0957, -7.92973, -0.73172, -7.97144, 7.95963, -0.85114, -1.0957, -7.92973, -0.73172, -7.97144, 20.32468, 1.85202, 1.22572, -20.3721, 2.15643, -20.29454, 20.32468, 1.85202, 1.22572, -20.3721, 2.15643, -20.29454, 9.8186, -1.23083, -1.53239, -9.77618, -1.08359, -9.83592, 9.8186, -1.23083, -1.53239, -9.77618, -1.08359, -9.83592, 12.20132, -0.94287, -1.3179, -12.16661, -0.75986, -12.214, 12.20132, -0.94287, -1.3179, -12.16661, -0.75986, -12.214, 21.56125, 0.18843, -0.47517, -21.55707, 0.51138, -21.55579, 21.56125, 0.18843, -0.47517, -21.55707, 0.51138, -21.55579, 27.06613, -0.35504, -1.18784, -27.04266, 0.05048, -27.06815, 27.06613, -0.35504, -1.18784, -27.04266, 0.05048, -27.06815, 1.91342, -21.3224, 2.88678, -21.21239, 2.88678, -21.21239, 2.20782, -34.02084, 2.88678, -21.21239, 0.34814, -11.45763, 11.46161, 0.17648, -0.17628, -11.46172, 0.34814, -11.45763, 31.78624, 2.02858, 31.77791, 2.15657, 1.04945, -31.83377, 2.50467, -31.75218, 31.78624, 2.02858, 31.77791, 2.15657, 2.50467, -31.75218, 14.224, 2.32346, 14.21458, 2.38071, 1.88466, -14.28889, 2.53632, -14.18748, 14.224, 2.32346, 14.21458, 2.38071, 1.88466, -14.28889, 2.53632, -14.18748, 14.29599, 1.72778, 14.28899, 1.78532, 1.28706, -14.3425, 1.94174, -14.26842, 14.29599, 1.72778, 14.28899, 1.78532, 1.28706, -14.3425, 1.94174, -14.26842, 11.46161, 0.17651, 11.46086, 0.22267, -0.17627, -11.46172, 0.34821, -11.45763, 11.46161, 0.17651, 11.46086, 0.22267, -0.17627, -11.46172, 0.34821, -11.45763, 19.27728, 0.51669, 19.27507, 0.59431, -0.07677, -19.28412, 0.80557, -19.26724, 19.27728, 0.51669, 19.27507, 0.59431, -0.07677, -19.28412, 0.80557, -19.26724, 7.51646, -2.08414, -2.00159, -7.53862, 7.50804, -2.11447, 7.51646, -2.08414, -2.00159, -7.53862, 22.16389, -3.36499, 22.17728, -3.27567, -4.04543, -22.04999, -3.03229, -22.21164, 22.16389, -3.36499, 22.17728, -3.27567, -3.03229, -22.21164, 13.41234, 4.03848, 13.39603, 4.09248, 4.23904, -13.35017, 13.41234, 4.03848, 13.39603, 4.09248, 3.62383, -13.5304, 4.23904, -13.35017, 17.70627, -1.48627, 17.71215, -1.41498, -2.03046, -17.65224, -1.22076, -17.72643, 17.70627, -1.48627, 17.71215, -1.41498, -1.22076, -17.72643, 26.60959, -2.46809, 26.61919, -2.36092, -3.2858, -26.52094, -2.06915, -26.64317, 10.3423, -0.56317, 10.34454, -0.52153, -0.88118, -10.32014, -0.40823, -10.34956, 5.5163, 0.11368, 5.5157, 0.13591, -0.05611, -5.51707, 0.19635, -5.51379, 16.87825, -2.38409, 16.88747, -2.31604, -2.90231, -16.79666, -2.13089, -16.91162, -1.03146, 8.53397, -1.06557, 8.52974, 8.56161, 0.76816, 8.51736, 1.15935, -1.06557, 8.52974, 8.51736, 1.15935, -1.06557, 8.52974, 8.51736, 1.15935, -1.06557, 8.52974, -1.03146, 8.53397, -1.06557, 8.52974, -1.03146, 8.53397, -1.06557, 8.52974, -1.16663, -22.0092, 21.98941, -1.49637, 21.99535, -1.40771, -1.16663, -22.0092, 21.98941, -1.49637, 21.99535, -1.40771, -1.16663, -22.0092, 21.98941, -1.49637, 21.99535, -1.40771, -1.16663, -22.0092, -1.16663, -22.0092 ],
							"curve": 0.25,
							"c3": 0.75
						},
						{
							"time": 2,
							"offset": 404,
							"vertices": [ -31.78175, 5.4747, 3.72797, 32.03383, 4.58289, 31.92268, -31.78175, 5.4747, 3.72797, 32.03383, 4.58289, 31.92268, -25.92619, 3.46689, 2.04347, 26.07713, 2.73981, 26.01317, -25.92619, 3.46689, 2.04347, 26.07713, 2.73981, 26.01317, -30.73936, 4.11052, 2.42286, 30.91837, 3.24838, 30.84256, -30.73936, 4.11052, 2.42286, 30.91837, 3.24838, 30.84256, -29.53609, 3.94962, 2.32801, 29.70807, 3.12125, 29.63522, -29.53609, 3.94962, 2.32801, 29.70807, 3.12125, 29.63522, -31.94264, 4.27142, 2.51772, 32.12871, 3.37543, 32.04994, -31.94264, 4.27142, 2.51772, 32.12871, 3.37543, 32.04994, -14.495, 1.93829, 1.14253, 14.57944, 1.53156, 14.54364, -14.495, 1.93829, 1.14253, 14.57944, 1.53156, 14.54364, 2.24451, 36.41214, 3.21695, 36.33916, 2.35834, 22.39119, -0.05731, 11.04887, 2.35834, 22.39119, 3.18475, 30.23894, -30.13774, 4.03008, 2.37546, 30.31326, 3.18475, 30.23894, -15.0966, 2.01874, -14.80003, 3.59682, 1.18995, 15.18454, 1.59515, 15.14726, -15.0966, 2.01874, -14.80003, 3.59682, 1.59515, 15.14726, -29.53606, 3.94961, -28.95602, 7.037, 2.32802, 29.70805, 3.12122, 29.63519, -29.53606, 3.94961, -28.95602, 7.037, 2.32802, 29.70805, 3.12122, 29.63519, -15.61783, 2.70084, -15.24655, 4.33, 1.84251, 15.74232, 2.26242, 15.68736, -15.61783, 2.70084, -15.24655, 4.33, 1.84251, 15.74232, 2.26242, 15.68736, -37.35745, 4.99551, -36.62383, 8.90045, 2.94447, 37.57498, 3.94778, 37.48285, -37.35745, 4.99551, -36.62383, 8.90045, 2.94447, 37.57498, 3.94778, 37.48285, -14.495, 1.9383, -14.21024, 3.45348, 1.14253, 14.57947, 1.53156, 14.54364, -14.495, 1.9383, -14.21024, 3.45348, 1.14253, 14.57947, 1.53156, 14.54364, -31.31532, 7.61037, 3.37555, 32.04988, -31.94264, 4.27143, -31.31532, 7.61037, 3.37555, 32.04988, -12.80566, 14.57283, -11.19995, 15.84009, 13.85078, 13.58426, 14.2081, 13.20886, -12.80566, 14.57283, -11.19995, 15.84009, 14.2081, 13.20886, -27.1295, 3.62781, -26.59673, 6.46365, 2.86688, 27.22057, -27.1295, 3.62781, -26.59673, 6.46365, 2.13833, 27.28749, 2.86688, 27.22057, -12.69006, 1.69695, -12.44073, 3.02347, 1.00028, 12.76405, 1.34076, 12.73267, -12.69006, 1.69695, -12.44073, 3.02347, 1.34076, 12.73267, -22.31636, 2.98418, -21.87807, 5.3169, 1.75895, 22.44627, 2.35834, 22.39119, -22.31636, 2.98418, -21.87807, 5.3169, 1.75895, 22.44627, 2.35834, 22.39119, -1.86057, 0.24885, -1.82367, 0.4434, 0.14678, 1.87138, 0.19598, 1.86691, -1.86057, 0.24885, -1.82367, 0.4434, 0.14678, 1.87138, 0.19598, 1.86691, 3.54669, 26.5238, 6.31932, 26.00298, 26.67825, -2.09032, 26.61298, -2.80313, 6.31932, 26.00298, 26.61298, -2.80313, 6.31932, 26.00298, 26.61298, -2.80313, 6.31932, 26.00298, 3.54669, 26.5238, 6.31932, 26.00298, 3.54669, 26.5238, 6.31932, 26.00298, -0.70007, 22.88148, -22.89186, -0.05946, -22.7709, 2.35075, -0.70007, 22.88148, -22.89186, -0.05946, -22.7709, 2.35075, -0.70007, 22.88148, -22.89186, -0.05946, -22.7709, 2.35075, -0.70007, 22.88148, -0.70007, 22.88148 ]
						}
					]
				}
			}
		}
	}
}
}