%YAML 1.1
%TAG !u! tag:unity3d.com,2011:
--- !u!114 &11400000
MonoBehaviour:
  m_ObjectHideFlags: 0
  m_CorrespondingSourceObject: {fileID: 0}
  m_PrefabInstance: {fileID: 0}
  m_PrefabAsset: {fileID: 0}
  m_GameObject: {fileID: 0}
  m_Enabled: 1
  m_EditorHideFlags: 0
  m_Script: {fileID: 11500000, guid: cf505dcb77a84653894151c6ae44e287, type: 3}
  m_Name: ActiveDamageUpSkill01
  m_EditorClassIdentifier: 
  skillId: activeDMG1
  description: '{activeDMG1}'
  price:
    mantissa: 5
    exponent: 0
  isUpdatable: 0
  isActive: 0
  itSold: 0
  multiplier: 0.1
