%YAML 1.1
%TAG !u! tag:unity3d.com,2011:
--- !u!114 &11400000
MonoBehaviour:
  m_ObjectHideFlags: 0
  m_CorrespondingSourceObject: {fileID: 0}
  m_PrefabInstance: {fileID: 0}
  m_PrefabAsset: {fileID: 0}
  m_GameObject: {fileID: 0}
  m_Enabled: 1
  m_EditorHideFlags: 0
  m_Script: {fileID: 11500000, guid: 0c09b0e5cdce49109d39906385cc48ce, type: 3}
  m_Name: "Task_\u0421lear10Country"
  m_EditorClassIdentifier: 
  reward: 10
  description: '{taskDesc20}'
  mode: 2
