%YAML 1.1
%TAG !u! tag:unity3d.com,2011:
--- !u!114 &11400000
MonoBehaviour:
  m_ObjectHideFlags: 0
  m_CorrespondingSourceObject: {fileID: 0}
  m_PrefabInstance: {fileID: 0}
  m_PrefabAsset: {fileID: 0}
  m_GameObject: {fileID: 0}
  m_Enabled: 1
  m_EditorHideFlags: 0
  m_Script: {fileID: 11500000, guid: 9d176192c9894163b1fe2b3e55355022, type: 3}
  m_Name: Task_Kill50Monsters
  m_EditorClassIdentifier: 
  reward: 5
  description: '{taskDesc14}'
  monsterCount: 50
