%YAML 1.1
%TAG !u! tag:unity3d.com,2011:
--- !u!114 &11400000
MonoBehaviour:
  m_ObjectHideFlags: 0
  m_CorrespondingSourceObject: {fileID: 0}
  m_PrefabInstance: {fileID: 0}
  m_PrefabAsset: {fileID: 0}
  m_GameObject: {fileID: 0}
  m_Enabled: 1
  m_EditorHideFlags: 0
  m_Script: {fileID: 11500000, guid: 969cc15d5167415e9b00126ebb15f1f9, type: 3}
  m_Name: Task_Earn1m
  m_EditorClassIdentifier: 
  reward: 25
  description: '{taskDesc5}'
  money:
    mantissa: 1
    exponent: 6
