%YAML 1.1
%TAG !u! tag:unity3d.com,2011:
--- !u!114 &11400000
MonoBehaviour:
  m_ObjectHideFlags: 0
  m_CorrespondingSourceObject: {fileID: 0}
  m_PrefabInstance: {fileID: 0}
  m_PrefabAsset: {fileID: 0}
  m_GameObject: {fileID: 0}
  m_Enabled: 1
  m_EditorHideFlags: 0
  m_Script: {fileID: 11500000, guid: 58b8231229084d7ca10e6e100649e432, type: 3}
  m_Name: Task_Kill5Boss
  m_EditorClassIdentifier: 
  reward: 5
  description: '{taskDesc9}'
  bossCount: 5
