%YAML 1.1
%TAG !u! tag:unity3d.com,2011:
--- !u!114 &11400000
MonoBehaviour:
  m_ObjectHideFlags: 0
  m_CorrespondingSourceObject: {fileID: 0}
  m_PrefabInstance: {fileID: 0}
  m_PrefabAsset: {fileID: 0}
  m_GameObject: {fileID: 0}
  m_Enabled: 1
  m_EditorHideFlags: 0
  m_Script: {fileID: 11500000, guid: 4d4939f70c194be9964de4fda4217d03, type: 3}
  m_Name: LanguageData
  m_EditorClassIdentifier: 
  data:
    data:
    - identifier: menuToolsTitle
      values:
      - "\u0418\u043D\u0441\u0442\u0440\u0443\u043C\u0435\u043D\u0442\u044B"
      - Tools
    - identifier: menuHeroTitle
      values:
      - "\u041F\u0435\u0440\u0441\u043E\u043D\u0430\u043B"
      - Heroes
    - identifier: menuTasksTitle
      values:
      - "\u0417\u0430\u0434\u0430\u043D\u0438\u044F"
      - Tasks
    - identifier: menuShopTitle
      values:
      - "\u041C\u0430\u0433\u0430\u0437\u0438\u043D"
      - Shop
    - identifier: menuArtifactTitle
      values:
      - "\u0410\u0440\u0442\u0435\u0444\u0430\u043A\u0442\u044B"
      - Artifacts
    - identifier: artifactsParts
      values:
      - "\u041E\u0441\u0442\u0430\u043B\u043E\u0441\u044C \u0447\u0430\u0441\u0442\u0435\u0439"
      - Parts left
    - identifier: artifactsType
      values:
      - "\u0422\u0438\u043F"
      - Type
    - identifier: Anesthesia
      values:
      - "\u0410\u043D\u0435\u0441\u0442\u0435\u0437\u0438\u044F"
      - Anesthesia
    - identifier: a1Desc
      values:
      - "\u0414\u0430\u0435\u0442 +2% \u043A \u043F\u0430\u0441\u0441\u0438\u0432\u043D\u043E\u043C\u0443
        \u0443\u0440\u043E\u043D\u0443"
      - Gives + 2% to passive damage
    - identifier: Antiseptic
      values:
      - "\u0410\u043D\u0442\u0438\u0441\u0435\u043F\u0442\u0438\u043A"
      - Antiseptic
    - identifier: a2Desc
      values:
      - "+5% \u043A \u043F\u0430\u0441\u0441\u0438\u0432\u043D\u043E\u043C\u0443
        \u0443\u0440\u043E\u043D\u0443 \u0438 +2% \u043A \u0430\u043A\u0442\u0438\u0432\u043D\u043E\u043C\u0443
        \u0443\u0440\u043E\u043D\u0443"
      - + 5% to passive damage and + 2% to active damage
    - identifier: Antibiotic
      values:
      - "\u0410\u043D\u0442\u0438\u0431\u0438\u043E\u0442\u0438\u043A"
      - Antibiotic
    - identifier: a3Desc
      values:
      - "\u0414\u0430\u0435\u0442 +10% \u043A \u043F\u0430\u0441\u0441\u0438\u0432\u043D\u043E\u043C\u0443
        \u0438 +5% \u043A \u0430\u043A\u0442\u0438\u0432\u043D\u043E\u043C\u0443
        \u0443\u0440\u043E\u043D\u0443"
      - Gives + 10% to passive and + 5% to active Damage
    - identifier: X-ray_radiation
      values:
      - "\u0420\u0435\u043D\u0442\u0433\u0435\u043D\u043E\u0432\u0441\u043A\u043E\u0435
        \u0438\u0437\u043B\u0443\u0447\u0435\u043D\u0438\u0435"
      - X-ray radiation
    - identifier: a4Desc
      values:
      - "\u0414\u0430\u0435\u0442 +10% \u043A \u0432\u044B\u043F\u0430\u0434\u0430\u044E\u0449\u0438\u043C
        \u043C\u043E\u043D\u0435\u0442\u0430\u043C"
      - Gives + 10% to coin drop
    - identifier: Insulin
      values:
      - "\u0418\u043D\u0441\u0443\u043B\u0438\u043D"
      - Insulin
    - identifier: a5Desc
      values:
      - "\u0414\u0430\u0435\u0442 +15% \u043A \u043C\u043E\u043D\u0435\u0442\u0430\u043C
        \u0438 + 15% \u043A \u043F\u0430\u0441\u0441\u0438\u0432\u043D\u043E\u043C\u0443
        \u0443\u0440\u043E\u043D\u0443 "
      - Gives + 15% to coins and + 15% to passive damage
    - identifier: Chemotherapy
      values:
      - "\u0425\u0438\u043C\u0438\u043E\u0442\u0435\u0440\u0430\u043F\u0438\u044F"
      - Chemotherapy
    - identifier: a6Desc
      values:
      - "\u0414\u0430\u0435\u0442 +20% \u043A \u0430\u043A\u0442\u0438\u0432\u043D\u043E\u043C\u0443
        \u0443\u0440\u043E\u043D\u0443"
      - Gives + 20% to active damage
    - identifier: Blood_type
      values:
      - "\u0413\u0440\u0443\u043F\u043F\u0430 \u043A\u0440\u043E\u0432\u0438"
      - Blood type
    - identifier: a7Desc
      values:
      - "\u0414\u0430\u0435\u0442 +50% \u043A \u0432\u044B\u043F\u0430\u0434\u0435\u043D\u0438\u044E
        \u043C\u043E\u043D\u0435\u0442 \u0438 +35% \u043A \u043F\u0430\u0441\u0441\u0438\u0432\u043D\u043E\u043C\u0443
        \u0443\u0440\u043E\u043D\u0443"
      - Gives + 50% to coin drop and + 35% to passive damage
    - identifier: Vitamins
      values:
      - "\u0412\u0438\u0442\u0430\u043C\u0438\u043D\u044B"
      - Vitamins
    - identifier: a8Desc
      values:
      - "\u0414\u0430\u0435\u0442  +50% \u043A \u043F\u0430\u0441\u0441\u0438\u0432\u043D\u043E\u043C\u0443
        \u0443\u0440\u043E\u043D\u0443 \u0438 +55% \u043A \u0430\u043A\u0442\u0438\u0432\u043D\u043E\u043C\u0443"
      - Gives + 50% to passive damage and + 55% to active
    - identifier: buttonBuyLabel
      values:
      - "\u041A\u0443\u043F\u0438\u0442\u044C"
      - Buy
    - identifier: hero1
      values:
      - "\u0418\u0437\u0430\u0431\u0435\u043B\u043B\u0430"
      - Izabella
    - identifier: hero2
      values:
      - "\u0421\u0442\u0438\u0432"
      - Steve
    - identifier: hero3
      values:
      - "\u0414\u0430\u043D\u0438\u0435\u043B\u043B\u0430"
      - Daniella
    - identifier: hero4
      values:
      - "\u0424\u0451\u0434\u043E\u0440"
      - Fedor
    - identifier: hero5
      values:
      - "\u0414\u0436\u043E\u0440\u0434\u0436"
      - George
    - identifier: heroDesc1
      values:
      - "\u0417\u0430\u043F\u0443\u0441\u043A\u0430\u0435\u0442 \u043A\u0430\u043C\u043F\u0430\u043D\u0438\u044E
        \u0440\u0430\u0437 \u0432 24 \u0447\u0430\u0441\u043E\u0432 \u0438 \u0434\u0430\u0451\u0442
        \u0431\u043E\u043D\u0443\u0441 \u043A \u043F\u043E\u043B\u0443\u0447\u0430\u0435\u043C\u044B\u043C
        \u043A\u0440\u0438\u0441\u0442\u0430\u043B\u043B\u0430\u043C \u043D\u0430
        2%"
      - Launches the campaign once every 24 hours and gives a bonus to received crystals
        by 2%
    - identifier: heroDesc2
      values:
      - "\u0417\u0430\u043F\u0443\u0441\u043A\u0430\u0435\u0442 \u043A\u0430\u043C\u043F\u0430\u043D\u0438\u044E
        \u0440\u0430\u0437 \u0432 12 \u0447\u0430\u0441\u043E\u0432 \u0438 \u0434\u0430\u0451\u0442
        +5% \u043A \u043F\u0430\u0441\u0441\u0438\u0432\u043D\u043E\u043C\u0443 \u0443\u0440\u043E\u043D\u0443"
      - Launches a campaign every 12 hours and gives + 5% to passive damage
    - identifier: heroDesc3
      values:
      - "\u0417\u0430\u043F\u0443\u0441\u043A\u0430\u0435\u0442 \u043A\u0430\u043C\u043F\u0430\u043D\u0438\u044E
        \u043A\u0430\u0436\u0434\u044B\u0439 \u0440\u0430\u0437 \u043A\u043E\u0433\u0434\u0430
        \u044D\u0442\u043E \u0432\u043E\u0437\u043C\u043E\u0436\u043D\u043E \u0438
        \u0434\u0430\u0451\u0442 +15% \u043A \u043C\u043E\u043D\u0435\u0442\u0430\u043C"
      - Launches a campaign every time it is possible and gives + 15% to coins
    - identifier: heroDesc4
      values:
      - "\u0417\u0430\u043F\u0443\u0441\u043A\u0430\u0435\u0442 \u043A\u0430\u043C\u043F\u0430\u043D\u0438\u044E
        \u0440\u0430\u0437 \u0432 10 \u0447\u0430\u0441\u043E\u0432 \u0438 \u0434\u0430\u0451\u0442
        +7% \u043F\u0440\u043E\u0446\u0435\u043D\u0442\u043E\u0432 \u043A \u0430\u043A\u0442\u0438\u0432\u043D\u043E\u043C\u0443
        \u0443\u0440\u043E\u043D\u0443 \u0438 +5% \u043A \u043C\u043E\u043D\u0435\u0442\u0430\u043C"
      - Launches the campaign every 10 hours and gives + 7% percent to active damage
        and + 5% to coins
    - identifier: heroDesc5
      values:
      - "\u0417\u0430\u043F\u0443\u0441\u043A\u0430\u0435\u0442 \u043A\u0430\u043C\u043F\u0430\u043D\u0438\u044E
        \u043A\u0430\u0436\u0434\u044B\u0439 \u0440\u0430\u0437 \u043A\u043E\u0433\u0434\u0430
        \u044D\u0442\u043E \u0432\u043E\u0437\u043C\u043E\u0436\u043D\u043E \u0438
        \u0434\u0430\u0451\u0442 +20% \u043A \u043C\u043E\u043D\u0435\u0442\u0430\u043C
        \u0430 \u0442\u0430\u043A\u0436\u0435 \u043A \u0432\u0441\u0435\u043C \u0432\u0438\u0434\u0430\u043C
        \u0443\u0440\u043E\u043D\u0430"
      - Launches a campaign every time it is possible and gives + 20% to coins and
        also to all types of damage
    - identifier: toolDamageLabel
      values:
      - "\u0423\u0440\u043E\u043D"
      - Damage
    - identifier: tool1
      values:
      - "\u0421\u043A\u0430\u043B\u044C\u043F\u0435\u043B\u044C"
      - Scalpel
    - identifier: tool2
      values:
      - "\u0421\u0442\u0435\u0442\u043E\u0441\u043A\u043E\u043F"
      - Stethoscope
    - identifier: tool3
      values:
      - "\u0413\u0440\u0430\u0434\u0443\u0441\u043D\u0438\u043A"
      - Thermometer
    - identifier: tool4
      values:
      - "\u0428\u043F\u0440\u0438\u0446"
      - Syringe
    - identifier: tool5
      values:
      - "\u0422\u043E\u043D\u043E\u043C\u0435\u0442\u0440"
      - Tonometer
    - identifier: tool6
      values:
      - "\u041C\u043E\u043B\u043E\u0442\u043E\u0447\u0435\u043A"
      - Hammer
    - identifier: tool7
      values:
      - "\u041D\u043E\u0436-\u0448\u043F\u0430\u0442\u0435\u043B\u044C"
      - Spatula knife
    - identifier: tool8
      values:
      - "\u0417\u0430\u0436\u0438\u043C \u043A\u0440\u043E\u0432\u043E\u043E\u0441\u0442\u0430\u043D\u0430\u0432\u043B\u0438\u0432\u0430\u044E\u0449\u0438\u0439"
      - Styptic forceps
    - identifier: tool9
      values:
      - "\u0414\u0435\u0440\u043C\u0430\u0442\u043E\u0441\u043A\u043E\u043F"
      - Dermatoscope
    - identifier: tool10
      values:
      - "\u0413\u0440\u0435\u043B\u043A\u0430"
      - Warmer
    - identifier: tool11
      values:
      - "\u042D\u043D\u0434\u043E\u0441\u043A\u043E\u043F"
      - Endoscope
    - identifier: tool12
      values:
      - "\u0414\u0435\u0444\u0438\u0431\u0440\u0438\u043B\u043B\u044F\u0442\u043E\u0440"
      - Defibrillator
    - identifier: tool13
      values:
      - "\u042D\u043B\u0435\u0432\u0430\u0442\u043E\u0440"
      - Elevator
    - identifier: tool14
      values:
      - "\u041F\u0438\u043B\u0430 \u0414\u0436\u0438\u0433\u043B\u0438"
      - Saw jigley
    - identifier: tool15
      values:
      - "\u0420\u0430\u0441\u043F\u0430\u0442\u043E\u0440"
      - Raspator
    - identifier: tool16
      values:
      - "\u041A\u043E\u043D\u0445\u043E\u0442\u043E\u043C"
      - Conhotom
    - identifier: tool17
      values:
      - "\u041C\u0438\u043A\u0440\u043E\u0441\u043A\u043E\u043F"
      - Microscope
    - identifier: tool18
      values:
      - "\u041B\u0435\u043A\u0430\u0440\u0441\u0442\u0432\u0435\u043D\u043D\u0430\u044F
        \u0436\u0438\u0434\u043A\u043E\u0441\u0442\u044C\u044E"
      - Medicinal fluid
    - identifier: tool19
      values:
      - "\u041C\u0435\u0434\u0438\u0446\u0438\u043D\u0441\u043A\u0430\u044F \u043A\u043D\u0438\u0433\u0430"
      - Medical book
    - identifier: tool20
      values:
      - "\u041F\u043B\u0430\u0441\u0442\u044B\u0440\u044C"
      - Patch
    - identifier: buttonHomeLabel
      values:
      - "\u0414\u043E\u043C\u043E\u0439"
      - Back
    - identifier: skillTreeWindowTitle
      values:
      - "\u0414\u0440\u0435\u0432\u043E \u0443\u043C\u0435\u043D\u0438\u0439"
      - Skill tree
    - identifier: activeDMG0
      values:
      - "\u0423\u0432\u0435\u043B\u0438\u0447\u0438\u0442\u044C \u0430\u043A\u0442\u0438\u0432\u043D\u044B\u0439
        \u0443\u0440\u043E\u043D \u043D\u0430 20%"
      - Increase active damage by 20%
    - identifier: activeDMG1
      values:
      - "\u0423\u0432\u0435\u043B\u0438\u0447\u0438\u0442\u044C \u0430\u043A\u0442\u0438\u0432\u043D\u044B\u0439
        \u0443\u0440\u043E\u043D \u043D\u0430 10%"
      - Increase active damage by 10%
    - identifier: activeDMG2
      values:
      - "\u0423\u0432\u0435\u043B\u0438\u0447\u0438\u0442\u044C \u0430\u043A\u0442\u0438\u0432\u043D\u044B\u0439
        \u0443\u0440\u043E\u043D \u043D\u0430 10%"
      - Increase active damage by 10%
    - identifier: activeDMG3
      values:
      - "\u0423\u0432\u0435\u043B\u0438\u0447\u0438\u0442\u044C \u0430\u043A\u0442\u0438\u0432\u043D\u044B\u0439
        \u0443\u0440\u043E\u043D \u043D\u0430 20%"
      - Increase active damage by 20%
    - identifier: travelup0
      values:
      - "\u0423\u0432\u0435\u043B\u0438\u0447\u0438\u0442\u044C \u043A\u043E\u043B\u0438\u0447\u0435\u0441\u0442\u0432\u043E
        \u043D\u0430\u0433\u0440\u0430\u0434\u044B \u0438\u0437 \u043A\u0430\u043C\u043F\u0430\u043D\u0438\u0438
        \u043D\u0430 10%"
      - Increase campaign rewards by 10%
    - identifier: travelup1
      values:
      - "\u0423\u043C\u0435\u043D\u044C\u0448\u0438\u0442\u044C \u0432\u0440\u0435\u043C\u044F
        \u043A\u0430\u043C\u043F\u0430\u043D\u0438\u0438 \u043D\u0430 5%"
      - Reduce campaign time by 5%
    - identifier: travelup2
      values:
      - "\u0423\u043C\u0435\u043D\u044C\u0448\u0438\u0442\u044C \u0432\u0440\u0435\u043C\u044F
        \u043A\u0430\u043C\u043F\u0430\u043D\u0438\u0438 \u043D\u0430 5%"
      - Reduce campaign time by 5%
    - identifier: travelup3
      values:
      - "\u0423\u043C\u0435\u043D\u044C\u0448\u0438\u0442\u044C \u0432\u0440\u0435\u043C\u044F
        \u043A\u0430\u043C\u043F\u0430\u043D\u0438\u0438 \u043D\u0430 10% \u0438
        \u0443\u0432\u0435\u043B\u0438\u0447\u0438\u0442\u044C \u043A\u043E\u043B\u0438\u0447\u0435\u0441\u0442\u0432\u043E
        \u043D\u0430\u0433\u0440\u0430\u0434\u044B \u043D\u0430 \u0441\u0442\u043E\u043B\u044C\u043A\u043E
        \u0436\u0435"
      - Reduce campaign time by 10% and increase the number of rewards by the same
        amount
    - identifier: money0
      values:
      - "\u0423\u0432\u0435\u043B\u0438\u0447\u0438\u0442\u044C \u043A\u043E\u043B\u0438\u0447\u0435\u0441\u0442\u0432\u043E
        \u0432\u044B\u043F\u0430\u0434\u0430\u0435\u043C\u044B\u0445 \u043C\u043E\u043D\u0435\u0442
        \u0438\u0437 \u043C\u043E\u043D\u0441\u0442\u0440\u043E\u0432 \u043D\u0430
        10%"
      - Increase the amount of coins dropped from monsters by 10%
    - identifier: money1
      values:
      - "\u0423\u0432\u0435\u043B\u0438\u0447\u0438\u0442\u044C \u043A\u043E\u043B\u0438\u0447\u0435\u0441\u0442\u0432\u043E
        \u0432\u044B\u043F\u0430\u0434\u0430\u0435\u043C\u044B\u0445 \u043C\u043E\u043D\u0435\u0442
        \u0438\u0437 \u043C\u043E\u043D\u0441\u0442\u0440\u043E\u0432 \u043D\u0430
        10%"
      - Increase the amount of coins dropped from monsters by 10%
    - identifier: money2
      values:
      - "\u0423\u0432\u0435\u043B\u0438\u0447\u0438\u0442\u044C \u043A\u043E\u043B\u0438\u0447\u0435\u0441\u0442\u0432\u043E
        \u0432\u044B\u043F\u0430\u0434\u0430\u0435\u043C\u044B\u0445 \u043C\u043E\u043D\u0435\u0442
        \u0438\u0437 \u043C\u043E\u043D\u0441\u0442\u0440\u043E\u0432 \u043D\u0430
        10%"
      - Increase the amount of coins dropped from monsters by 10%
    - identifier: money3
      values:
      - "\u0423\u0432\u0435\u043B\u0438\u0447\u0438\u0442\u044C \u043A\u043E\u043B\u0438\u0447\u0435\u0441\u0442\u0432\u043E
        \u0432\u044B\u043F\u0430\u0434\u0430\u0435\u043C\u044B\u0445 \u043C\u043E\u043D\u0435\u0442
        \u0438\u0437 \u043C\u043E\u043D\u0441\u0442\u0440\u043E\u0432 \u043D\u0430
        20%"
      - Increase the number of coins dropped from monsters by 20%
    - identifier: passiveDMG0
      values:
      - "\u0423\u0432\u0435\u043B\u0438\u0447\u0438\u0442\u044C \u043F\u0430\u0441\u0441\u0438\u0432\u043D\u044B\u0439
        \u0443\u0440\u043E\u043D \u043D\u0430 10%"
      - Increase passive damage by 10%
    - identifier: passiveDMG1
      values:
      - "\u0423\u0432\u0435\u043B\u0438\u0447\u0438\u0442\u044C \u043F\u0430\u0441\u0441\u0438\u0432\u043D\u044B\u0439
        \u0443\u0440\u043E\u043D \u043D\u0430 5%"
      - Increase passive damage by 5%
    - identifier: passiveDMG2
      values:
      - "\u0423\u0432\u0435\u043B\u0438\u0447\u0438\u0442\u044C \u043F\u0430\u0441\u0441\u0438\u0432\u043D\u044B\u0439
        \u0443\u0440\u043E\u043D \u043D\u0430 5%"
      - Increase passive damage by 5%
    - identifier: passiveDMG3
      values:
      - "\u0423\u0432\u0435\u043B\u0438\u0447\u0438\u0442\u044C \u043F\u0430\u0441\u0441\u0438\u0432\u043D\u044B\u0439
        \u0443\u0440\u043E\u043D \u043D\u0430 20%"
      - Increase passive damage by 20%
    - identifier: levelLabel
      values:
      - "\u0423\u0440\u043E\u0432\u0435\u043D\u044C"
      - Level
    - identifier: campaignButtonLabel
      values:
      - "\u041F\u0430\u0441\u0438\u0432\u043D\u0430\u044F \u043A\u0430\u043C\u043F\u0430\u043D\u0438\u044F"
      - Passive Campaign
    - identifier: campaingWindowTitle
      values:
      - "\u041A\u0430\u043C\u043F\u0430\u043D\u0438\u044F"
      - Campaign
    - identifier: buttonStartLabel
      values:
      - "\u041D\u0430\u0447\u0430\u0442\u044C"
      - Start
    - identifier: buttonClaimLabel
      values:
      - "\u0417\u0430\u0431\u0440\u0430\u0442\u044C"
      - Claim
    - identifier: windowIdleTitle
      values:
      - "\u041F\u0440\u043E\u0439\u0434\u0435\u043D\u043E"
      - Passed
    - identifier: idleRewardLabel
      values:
      - "\u041F\u043E\u043A\u0430 \u0432\u0430\u0441 \u043D\u0435 \u0431\u044B\u043B\u043E
        \u0432\u044B \u0437\u0430\u0440\u0430\u0431\u043E\u0442\u0430\u043B\u0438"
      - While you were gone you earned
    - identifier: campaignRewardLabel
      values:
      - "\u0412\u0430\u0448\u0430 \u043D\u0430\u0433\u0440\u0430\u0434\u0430"
      - Your reward
    - identifier: windowShopTitle
      values:
      - "\u041C\u0430\u0433\u0430\u0437\u0438\u043D"
      - SHOP
    - identifier: shopItemLabel1
      values:
      - "\u0413\u043E\u0440\u0441\u0442\u044C \u043A\u0440\u0438\u0441\u0442\u0430\u043B\u043B\u043E\u0432"
      - Handful of crystals
    - identifier: shopItemLabel2
      values:
      - "\u041C\u0435\u0448\u043E\u0447\u0435\u043A \u043A\u0440\u0438\u0441\u0442\u0430\u043B\u043B\u043E\u0432 "
      - Bag of crystals
    - identifier: shopItemLabel3
      values:
      - "\u041A\u043E\u0440\u043E\u0431\u043A\u0430 \u043A\u0440\u0438\u0441\u0442\u0430\u043B\u043B\u043E\u0432"
      - Box of crystals
    - identifier: shopItemLabel4
      values:
      - "\u0413\u043E\u0440\u0430 \u043A\u0440\u0438\u0441\u0442\u0430\u043B\u043B\u043E\u0432"
      - Mount of crystals
    - identifier: shopItemLabel5
      values:
      - "\u0422\u044C\u043C\u0430 \u043A\u0440\u0438\u0441\u0442\u0430\u043B\u043B\u043E\u0432"
      - Tones of crystals
    - identifier: shopItemDesc1
      values:
      - "\u041D\u0430\u0431\u043E\u0440 \u0438\u0437 <#FFFFFF><font=\"MenyakaOutlinedSDF\">5</font></color>
        \u043C\u0430\u0433\u0438\u0447\u0435\u0441\u043A\u0438\u0445 \u043A\u0440\u0438\u0441\u0442\u0430\u043B\u043E\u0432"
      - Set of <#FFFFFF><font="MenyakaOutlinedSDF">5</font> </color> magic crystals
    - identifier: shopItemDesc2
      values:
      - "\u041D\u0430\u0431\u043E\u0440 \u0438\u0437 <#FFFFFF><font=\"MenyakaOutlinedSDF\">80</font></color>
        \u043C\u0430\u0433\u0438\u0447\u0435\u0441\u043A\u0438\u0445 \u043A\u0440\u0438\u0441\u0442\u0430\u043B\u043E\u0432"
      - Set of <#FFFFFF><font="MenyakaOutlinedSDF">80</font> </color> magic crystals
    - identifier: shopItemDesc3
      values:
      - "\u041D\u0430\u0431\u043E\u0440 \u0438\u0437 <#FFFFFF><font=\"MenyakaOutlinedSDF\">150</font></color>
        \u043C\u0430\u0433\u0438\u0447\u0435\u0441\u043A\u0438\u0445 \u043A\u0440\u0438\u0441\u0442\u0430\u043B\u043E\u0432"
      - Set of <#FFFFFF><font="MenyakaOutlinedSDF">150</font> </color> magic crystals
    - identifier: shopItemDesc4
      values:
      - "\u041D\u0430\u0431\u043E\u0440 \u0438\u0437 <#FFFFFF><font=\"MenyakaOutlinedSDF\">750</font></color>
        \u043C\u0430\u0433\u0438\u0447\u0435\u0441\u043A\u0438\u0445 \u043A\u0440\u0438\u0441\u0442\u0430\u043B\u043E\u0432"
      - Set of <#FFFFFF><font="MenyakaOutlinedSDF">750</font> </color> magic crystals
    - identifier: shopItemDesc5
      values:
      - "\u041D\u0430\u0431\u043E\u0440 \u0438\u0437 <#FFFFFF><font=\"MenyakaOutlinedSDF\">2500</font></color>
        \u043C\u0430\u0433\u0438\u0447\u0435\u0441\u043A\u0438\u0445 \u043A\u0440\u0438\u0441\u0442\u0430\u043B\u043E\u0432"
      - Set of <#FFFFFF><font="MenyakaOutlinedSDF">2500</font> </color> magic crystals
    - identifier: windowTaskTitle
      values:
      - "\u0417\u0430\u0434\u0430\u043D\u0438\u044F"
      - Tasks
    - identifier: taskClaimLabel
      values:
      - "\u041F\u043E\u043B\u0443\u0447\u0438\u0442\u044C"
      - Claim
    - identifier: taskPassedLabel
      values:
      - "\u041F\u0440\u043E\u0439\u0434\u0435\u043D\u043E"
      - Passed
    - identifier: taskLabel
      values:
      - "\u0417\u0430\u0434\u0430\u043D\u0438\u0435"
      - Task
    - identifier: taskDesc1
      values:
      - "\u041A\u0443\u043F\u0438\u0442\u0435 \u043B\u044E\u0431\u043E\u0433\u043E
        \u0438\u0437 \u043F\u0435\u0440\u0441\u043E\u043D\u0430\u043B\u0430"
      - Buy any hero
    - identifier: taskDesc2
      values:
      - "\u0421\u043E\u0431\u0435\u0440\u0438\u0442\u0435 \u043E\u0434\u0438\u043D
        \u0438\u0437 \u0430\u0440\u0442\u0435\u0444\u0430\u043A\u0442\u043E\u0432"
      - Collect one of the artifacts
    - identifier: taskDesc3
      values:
      - "\u0421\u043E\u0431\u0435\u0440\u0438\u0442\u0435 \u0432\u0441\u0435 \u0430\u0440\u0442\u0435\u0444\u0430\u043A\u0442\u044B"
      - Collect all the artifacts
    - identifier: taskDesc4
      values:
      - "\u0421\u0434\u0435\u043B\u0430\u0439\u0442\u0435 \u0432\u043D\u0443\u0442\u0440\u0438\u0438\u0433\u0440\u043E\u0432\u0443\u044E
        \u043F\u043E\u043A\u0443\u043F\u043A\u0443 "
      - Make an in-game purchase
    - identifier: taskDesc5
      values:
      - "\u0417\u0430\u0440\u0430\u0431\u043E\u0442\u0430\u0442\u044C 1m \u043C\u043E\u043D\u0435\u0442"
      - Earn 1m Coins
    - identifier: taskDesc6
      values:
      - "\u0417\u0430\u0440\u0430\u0431\u043E\u0442\u0430\u0442\u044C 100k \u043C\u043E\u043D\u0435\u0442"
      - Earn 100k Coins
    - identifier: taskDesc7
      values:
      - "\u0417\u0430\u0440\u0430\u0431\u043E\u0442\u0430\u0442\u044C 500k \u043C\u043E\u043D\u0435\u0442"
      - Earn 500k Coins
    - identifier: taskDesc8
      values:
      - "\u0423\u0431\u0435\u0439\u0442\u0435 1 \u0431\u043E\u0441\u0441\u0430"
      - Kill 1 boss
    - identifier: taskDesc9
      values:
      - "\u0423\u0431\u0435\u0439\u0442\u0435 5 \u0431\u043E\u0441\u0441\u0430"
      - Kill 5 boss
    - identifier: taskDesc10
      values:
      - "\u0423\u0431\u0435\u0439\u0442\u0435 10 \u0431\u043E\u0441\u0441\u0430"
      - Kill 10 boss
    - identifier: taskDesc11
      values:
      - "\u0423\u0431\u0438\u0442\u044C 10 \u041C\u043E\u043D\u0441\u0442\u0440\u043E\u0432"
      - Kill 10 Monsters
    - identifier: taskDesc12
      values:
      - "\u0423\u0431\u0438\u0442\u044C 20 \u041C\u043E\u043D\u0441\u0442\u0440\u043E\u0432"
      - Kill 20 Monsters
    - identifier: taskDesc13
      values:
      - "\u0423\u0431\u0435\u0439\u0442\u0435 50 \u0431\u043E\u0441\u0441\u043E\u0432"
      - Kill 50 bosses
    - identifier: taskDesc14
      values:
      - "\u0423\u0431\u0438\u0442\u044C 50 \u041C\u043E\u043D\u0441\u0442\u0440\u043E\u0432"
      - Kill 50 Monsters
    - identifier: taskDesc15
      values:
      - "\u0423\u0431\u0435\u0439\u0442\u0435 100 \u0431\u043E\u0441\u0441\u043E\u0432"
      - Kill 100 bosses
    - identifier: taskDesc16
      values:
      - "\u0423\u0431\u0438\u0442\u044C 100 \u041C\u043E\u043D\u0441\u0442\u0440\u043E\u0432"
      - Kill 100 Monsters
    - identifier: taskDesc17
      values:
      - "\u0423\u0431\u0438\u0442\u044C 500 \u041C\u043E\u043D\u0441\u0442\u0440\u043E\u0432"
      - Kill 500 Monsters
    - identifier: taskDesc18
      values:
      - "\u0423\u0431\u0438\u0442\u044C 1000 \u041C\u043E\u043D\u0441\u0442\u0440\u043E\u0432"
      - Kill 1000 Monsters
    - identifier: taskDesc19
      values:
      - "\u041E\u0447\u0438\u0441\u0442\u0438\u0442\u0435 \u043E\u0442 \u0432\u0438\u0440\u0443\u0441\u0430
        5 \u0441\u0442\u0440\u0430\u043D"
      - Clear 5 countries from viruses
    - identifier: taskDesc20
      values:
      - "\u041E\u0447\u0438\u0441\u0442\u0438\u0442\u0435 \u043E\u0442 \u0432\u0438\u0440\u0443\u0441\u0430
        10 \u0441\u0442\u0440\u0430\u043D"
      - Clear 10 countries from viruses
    - identifier: taskDesc21
      values:
      - "\u041E\u0447\u0438\u0441\u0442\u0438\u0442\u0435 \u043E\u0442 \u0432\u0438\u0440\u0443\u0441\u0430
        20 \u0441\u0442\u0440\u0430\u043D"
      - Clear 20 countries from viruses
    - identifier: buttonPanelSkills
      values:
      - "\u0414\u0440\u0435\u0432\u043E \u0443\u043C\u0435\u043D\u0438\u0439"
      - Skill tree
    - identifier: buttonPanelArtifacts
      values:
      - "\u0410\u0440\u0442\u0435\u0444\u0430\u043A\u0442\u044B"
      - Artifacts
    - identifier: buttonPanelHeroes
      values:
      - "\u041F\u0435\u0440\u0441\u043E\u043D\u0430\u043B"
      - Heroes
    - identifier: labelEnemyName
      values:
      - "\u0412\u0438\u0440\u0443\u0441\u044F\u043A\u0430"
      - Virus
    - identifier: labelEnemyBossName
      values:
      - "\u0413\u043B\u0430\u0432\u043D\u044B\u0439 \u0432\u0438\u0440\u0443\u0441"
      - Great virus
    - identifier: windowSelectAvatarTitle
      values:
      - "\u0412\u044B\u0431\u0435\u0440\u0438\u0442\u0435 \u0430\u0432\u0430\u0442\u0430\u0440"
      - Select avatar
    - identifier: enemyLabel1
      values:
      - "\u0417\u043B\u043E\u0439 \u0432\u0438\u0440\u0443\u0441"
      - Evil virus
    - identifier: enemyLabel2
      values:
      - "\u041E\u043F\u0430\u0441\u043D\u044B\u0439 \u0432\u0438\u0440\u0443\u0441"
      - Dangerous virus
    - identifier: enemyLabel3
      values:
      - "\u0421\u043C\u0435\u0440\u0442\u0435\u043B\u044C\u043D\u044B\u0439 \u0432\u0438\u0440\u0443\u0441"
      - Deadly virus
    - identifier: enemyLabel4
      values:
      - "\u0416\u0430\u043B\u043A\u0430\u044F \u0431\u0430\u043A\u0442\u0435\u0440\u0438\u044F"
      - Miserable bacterium
    - identifier: enemyLabel5
      values:
      - "\u041F\u043E\u0442\u0440\u044F\u0441\u0430\u044E\u0449\u0430\u044F \u0431\u0430\u043A\u0442\u0435\u0440\u0438\u044F"
      - Awesome bacteria
    - identifier: enemyLabel6
      values:
      - "\u0417\u0430\u0445\u0432\u0430\u0442\u044B\u0432\u0430\u044E\u0449\u0430\u044F
        \u0431\u0430\u043A\u0442\u0435\u0440\u0438\u044F"
      - Addictive bacteria
    - identifier: enemyLabel7
      values:
      - "\u041E\u043F\u0430\u0441\u043D\u0430\u044F \u0431\u043E\u043B\u0435\u0437\u043D\u044C"
      - Dangerous disease
    - identifier: enemyLabel8
      values:
      - "\u041D\u0430\u0434\u043E\u0435\u0434\u043B\u0438\u0432\u0430\u044F \u0431\u043E\u043B\u0435\u0437\u043D\u044C"
      - Annoying disease
    - identifier: enemyLabel9
      values:
      - "\u0422\u0438\u0445\u0438\u0439 \u0432\u0438\u0440\u0443\u0441"
      - Silent virus
    - identifier: enemyLabel10
      values:
      - "\u0421\u043A\u0440\u044B\u0442\u043D\u0430\u044F \u0431\u0430\u043A\u0442\u0435\u0440\u0438\u044F"
      - Hidden bacteria
    - identifier: enemyBossLabel1
      values:
      - "\u041A\u043E\u0440\u043E\u043B\u044C \u0432\u0438\u0440\u0443\u0441\u043E\u0432"
      - King of the Virus
    - identifier: enemyBossLabel2
      values:
      - "\u041A\u043E\u0440\u043E\u043B\u044C \u0431\u0430\u043A\u0442\u0435\u0440\u0438\u0439"
      - King of bacteria
    - identifier: enemyBossLabel3
      values:
      - "\u041C\u0443\u0442\u0438\u0440\u043E\u0432\u0430\u0432\u0448\u0438\u0439
        \u0432\u0438\u0440\u0443\u0441"
      - Mutated virus
    - identifier: enemyBossLabel4
      values:
      - "\u0425\u0438\u0442\u0440\u0430\u044F \u0431\u0430\u043A\u0442\u0435\u0440\u0438\u044F"
      - Sly bacteria
    - identifier: enemyBossLabel5
      values:
      - "\u041D\u0435\u0438\u0437\u0432\u0435\u0441\u0442\u043D\u0430\u044F \u0431\u043E\u043B\u0435\u0437\u043D\u044C"
      - Unknown disease
    - identifier: loadingLabel
      values:
      - "\u0417\u0430\u0433\u0440\u0443\u0437\u043A\u0430"
      - Loading
    - identifier: notenoughcrystalls
      values:
      - "\u041A \u0441\u043E\u0436\u0430\u043B\u0435\u043D\u0438\u044E \u0443 \u0432\u0430\u0441
        \u043D\u0435\u0434\u043E\u0441\u0442\u0430\u0442\u043E\u0447\u043D\u043E
        \u043A\u0440\u0438\u0441\u0442\u0430\u043B\u043B\u043E\u0432 \u0434\u043B\u044F
        \u044D\u0442\u043E\u0439 \u043F\u043E\u043A\u0443\u043F\u043A\u0438 \u043D\u043E
        \u0432\u044B \u0432\u0441\u0435\u0433\u0434\u0430 \u043C\u043E\u0436\u0435\u0442\u0435
        \u043A\u0443\u043F\u0438\u0442\u044C \u0438\u0445 \u0432 \u043C\u0430\u0433\u0430\u0437\u0438\u043D\u0435!"
      - Unfortunately, you don't have enough crystals for this purchase, but you
        can always buy them in the shop!
    - identifier: notenoughcrystallslabel
      values:
      - "\u041F\u043E\u043A\u0443\u043F\u043A\u0430 \u043D\u0435 \u0443\u0434\u0430\u043B\u0430\u0441\u044C"
      - Purchase failed
    - identifier: toshoplabel
      values:
      - "\u0412 \u043C\u0430\u0433\u0430\u0437\u0438\u043D"
      - Shop
    - identifier: tutorialWindow
      values:
      - "\u041E\u0431\u0443\u0447\u0435\u043D\u0438\u0435"
      - Tutorial
    - identifier: tutorialNext
      values:
      - "\u0414\u0430\u043B\u0435\u0435"
      - Next
    - identifier: tutorialPrev
      values:
      - "\u041D\u0430\u0437\u0430\u0434"
      - Previous
    - identifier: skiptutorial
      values:
      - "\u041F\u0440\u043E\u043F\u0443\u0441\u0442\u0438\u0442\u044C"
      - Skip
    - identifier: tutorialtext1
      values:
      - "\u041F\u043E\u043A\u0443\u043F\u0430\u0439\u0442\u0435 \u0438 \u043F\u0440\u043E\u043A\u0430\u0447\u0438\u0432\u0430\u0439\u0442\u0435
        \u0438\u043D\u0441\u0442\u0440\u0443\u043C\u0435\u043D\u0442\u044B \u0447\u0442\u043E\u0431\u044B
        \u0441\u043E\u0431\u0440\u0430\u0442\u044C \u0441\u0432\u043E\u044E \u043A\u043E\u043C\u0430\u043D\u0434\u0443
        \u0438 \u0431\u043E\u0440\u043E\u0442\u044C\u0441\u044F \u0441 \u0432\u0438\u0440\u0443\u0441\u0430\u043C\u0438
        \u043F\u043E\u0441\u0442\u043E\u044F\u043D\u043D\u043E!"
      - Buy and upgrade tools to gather your team and fight viruses all time!
    - identifier: tutorialtext2
      values:
      - "\u041F\u0430\u0441\u0441\u0438\u0432\u043D\u044B\u0439 \u0443\u0440\u043E\u043D
        - \u044D\u0442\u043E \u0443\u0440\u043E\u043D \u0432\u0430\u0448\u0435\u0439
        \u043A\u043E\u043C\u0430\u043D\u0434\u044B. \u0415\u0433\u043E \u043C\u043E\u0436\u043D\u043E
        \u0443\u043B\u0443\u0447\u0448\u0438\u0442\u044C \u0432 \u043F\u0430\u043D\u0435\u043B\u0438
        \xAB\u0418\u043D\u0441\u0442\u0440\u0443\u043C\u0435\u043D\u0442\u044B\xBB"
      - Passive damage is your team's damage. It can be improved in the "Tools" panel
    - identifier: tutorialtext3
      values:
      - "\u0410\u043A\u0442\u0438\u0432\u043D\u044B\u0439 \u0443\u0440\u043E\u043D
        - \u044D\u0442\u043E \u0432\u0430\u0448 \u0443\u0440\u043E\u043D \u043A\u043E\u0433\u0434\u0430
        \u0432\u044B \u043A\u0430\u0441\u0430\u0435\u0442\u0435\u0441\u044C \u044D\u043A\u0440\u0430\u043D\u0430.
        \u0415\u0433\u043E \u043C\u043E\u0436\u043D\u043E \u0443\u043B\u0443\u0447\u0448\u0438\u0442\u044C
        \u0432 \u043F\u0430\u043D\u0435\u043B\u0438 \xAB\u0418\u043D\u0441\u0442\u0440\u0443\u043C\u0435\u043D\u0442\u044B\xBB."
      - Active damage is your damage when you touch the screen. It can be improved
        in the "Tools" panel.
    - identifier: tutorialtext4
      values:
      - "\u041D\u0430 \u043A\u0430\u0440\u0442\u0435 \u0432\u044B \u043C\u043E\u0436\u0435\u0442\u0435
        \u0432\u0438\u0434\u0435\u0442\u044C \u0432\u0430\u0448 \u043F\u0440\u043E\u0433\u0440\u0435\u0441\u0441
        \u043F\u043E \u043E\u0447\u0438\u0441\u0442\u043A\u0435 \u0432\u0441\u0435\u0433\u043E
        \u043C\u0438\u0440\u0430 \u043E\u0442 \u0432\u0438\u0440\u0443\u0441\u043E\u0432."
      - On the map you can see your progress in cleaning the whole world from viruses.
    - identifier: tutorialtext5
      values:
      - "\u041F\u0435\u0440\u0441\u043E\u043D\u0430\u043B \u043F\u043E\u043C\u043E\u0436\u0435\u0442
        \u0432\u0430\u043C \u0437\u0430\u043F\u0443\u0441\u043A\u0430\u0442\u044C
        \u043F\u0430\u0441\u0441\u0438\u0432\u043D\u044B\u0435 \u043A\u0430\u043C\u043F\u0430\u043D\u0438\u0438
        \u0438 \u0434\u043E\u0431\u044B\u0432\u0430\u0442\u044C \u0431\u043E\u043B\u044C\u0448\u0435
        \u0437\u043E\u043B\u043E\u0442\u0430 \u0438\u043B\u0438 \u043E\u0431\u0435\u0441\u043F\u0435\u0447\u0438\u0442
        \u043F\u0440\u0438\u0440\u043E\u0441\u0442 \u043A \u0443\u0440\u043E\u043D\u0443."
      - The staff will help you run passive campaigns and mine more gold or provide
        an increase in damage.
    - identifier: tutorialtext6
      values:
      - "\u041F\u0430\u0441\u0441\u0438\u0432\u043D\u044B\u0435 \u043A\u0430\u043C\u043F\u0430\u043D\u0438\u0438
        \u0434\u0430\u044E\u0442 \u0432\u0430\u043C \u0433\u0430\u0440\u0430\u043D\u0442\u0438\u0440\u043E\u0432\u0430\u043D\u043D\u044B\u0435
        \u043A\u0440\u0438\u0441\u0442\u0430\u043B\u043B\u044B, \u043D\u043E \u0437\u0430\u0431\u0438\u0440\u0430\u044E\u0442
        \u0441\u043B\u0443\u0447\u0430\u0439\u043D\u044B\u043C \u043E\u0431\u0440\u0430\u0437\u043E\u043C
        \u0432\u0430\u0448\u0438 \u0438\u043D\u0441\u0442\u0440\u0443\u043C\u0435\u043D\u0442\u044B."
      - Passive campaigns give you guaranteed crystals, but randomly take your tools.
    - identifier: tutorialtext7
      values:
      - "\u0414\u0435\u0440\u0435\u0432\u043E \u0443\u043C\u0435\u043D\u0438\u0439
        \u0434\u0430\u0451\u0442 \u0432\u0430\u043C \u0432\u043E\u0437\u043C\u043E\u0436\u043D\u043E\u0441\u0442\u044C
        \u0443\u043B\u0443\u0447\u0448\u0430\u0442\u044C \u0441\u0432\u043E\u0438
        \u043F\u0430\u0440\u0430\u043C\u0435\u0442\u0440\u044B \u0438 \u043F\u043E\u043B\u0443\u0447\u0430\u0442\u044C
        \u0431\u043E\u043B\u044C\u0448\u0435 \u0437\u043E\u043B\u043E\u0442\u0430
        \u0437\u0430 \u043F\u043E\u0431\u0435\u0434\u0443 \u043D\u0430\u0434 \u0432\u0438\u0440\u0443\u0441\u0430\u043C\u0438."
      - The skill tree gives you the opportunity to improve your parameters and get
        more gold for defeating viruses.
    - identifier: tutorialtext8
      values:
      - "\u0410\u0440\u0442\u0435\u0444\u0430\u043A\u0442\u044B \u043F\u043E\u0437\u0432\u043E\u043B\u044F\u0442
        \u0432\u0430\u043C \u0443\u043A\u0440\u0435\u043F\u0438\u0442\u044C\u0441\u044F
        \u0432 \u043F\u0440\u043E\u0442\u0438\u0432\u043E\u0441\u0442\u043E\u044F\u043D\u0438\u0438
        \u0441 \u043C\u043E\u043D\u0441\u0442\u0440\u0430\u043C\u0438 \u0438 \u0443\u043B\u0443\u0447\u0448\u0430\u0442
        \u0432\u0430\u0448\u0438 \u0445\u0430\u0440\u0430\u043A\u0442\u0435\u0440\u0438\u0441\u0442\u0438\u043A\u0438."
      - Artifacts will allow you to strengthen in the confrontation with monsters
        and improve your characteristics.
    - identifier: tutorialtext9
      values:
      - "\u0417\u0430\u0434\u0430\u043D\u0438\u044F \u043F\u043E\u0437\u0432\u043E\u043B\u044F\u0442
        \u0432\u0430\u043C \u043F\u043E\u043B\u0443\u0447\u0430\u0442\u044C \u043F\u0440\u0438\u0437\u044B
        \u0437\u0430 \u0432\u0430\u0448\u0443 \u0438\u0433\u0440\u0443. \u041F\u0440\u043E\u0445\u043E\u0434\u0438
        \u043A\u0430\u0436\u0434\u043E\u0435 \u0438 \u043F\u043E\u043B\u0443\u0447\u0430\u0439
        \u043D\u0430\u0433\u0440\u0430\u0434\u044B!"
      - Quests will allow you to receive prizes for your game. Go through each and
        get rewards!
    - identifier: tutorialtext10
      values:
      - "\u0412 \u043C\u0430\u0433\u0430\u0437\u0438\u043D\u0435 \u0432\u044B \u043C\u043E\u0436\u0435\u0442\u0435
        \u043F\u0440\u0438\u043E\u0431\u0440\u0435\u0441\u0442\u0438 \u043A\u0440\u0438\u0441\u0442\u0430\u043B\u043B\u044B,
        \u0447\u0442\u043E\u0431\u044B \u0443\u043B\u0443\u0447\u0448\u0438\u0442\u044C
        \u0441\u0435\u0431\u044F \u0431\u044B\u0441\u0442\u0440\u0435\u0435."
      - In the store, you can purchase crystals to improve yourself faster.In the
        store, you can purchase crystals to improve yourself faster.
    - identifier: tutorialtext11
      values:
      - "\u041C\u043E\u043D\u0441\u0442\u0440\u044B - \u044D\u0442\u043E \u0432\u0438\u0440\u0443\u0441\u044B,
        \u0441 \u043A\u043E\u0442\u043E\u0440\u044B\u043C\u0438 \u0432\u044B \u0431\u0443\u0434\u0435\u0442\u0435
        \u0431\u043E\u0440\u043E\u0442\u044C\u0441\u044F \u0432\u0441\u044E \u0438\u0433\u0440\u0443.
        \u0423\u043B\u0443\u0447\u0448\u0430\u0439\u0442\u0435 \u0441\u0435\u0431\u044F
        \u0438 \u0441\u0432\u043E\u044E \u043A\u043E\u043C\u0430\u043D\u0434\u0443,
        \u0447\u0442\u043E\u0431\u044B \u043F\u043E\u0431\u0435\u0436\u0434\u0430\u0442\u044C
        \u0431\u043E\u043B\u0435\u0435 \u0441\u0438\u043B\u044C\u043D\u044B\u0445
        \u043C\u043E\u043D\u0441\u0442\u0440\u043E\u0432."
      - Monsters are viruses that you will fight against throughout the game. Improve
        yourself and your team to defeat stronger monsters.
    - identifier: tutorialtext12
      values:
      - "\u0411\u043E\u0441\u0441\u044B - \u044D\u0442\u043E \u0432\u0438\u0440\u0443\u0441\u044B
        \u0441 \u0431\u043E\u043B\u044C\u0448\u0438\u043C \u043A\u043E\u043B\u0438\u0447\u0435\u0441\u0442\u0432\u043E
        \u0437\u0434\u043E\u0440\u043E\u0432\u044C\u044F \u0438 \u043E\u0433\u0440\u0430\u043D\u0438\u0447\u0435\u043D\u0438\u0435\u043C
        \u043F\u043E \u0432\u0440\u0435\u043C\u0435\u043D\u0438 \u043D\u0430 \u0438\u0445
        \u0443\u0431\u0438\u0439\u0441\u0442\u0432\u043E."
      - Bosses are viruses with a large amount of health and a time limit on killing
        them.
    - identifier: buttonSkillBought
      values:
      - "\u041A\u0443\u043F\u043B\u0435\u043D\u043D\u043E"
      - Bought
    - identifier: currentToolDamage
      values:
      - "\u0422\u0435\u043A\u0443\u0449\u0438\u0439 \u0443\u0440\u043E\u043D: "
      - 'Current damage: '
    - identifier: nextToolDamage
      values:
      - "\u0421\u043B\u0435\u0434\u0443\u044E\u0449\u0438\u0439: "
      - 'Next damage: '
    - identifier: oklabel
      values:
      - "\u0417\u0430\u0431\u0440\u0430\u0442\u044C"
      - Claim
    - identifier: artifactfoundnote
      values:
      - "\u041D\u0430\u0445\u043E\u0434\u043A\u0430"
      - Prize
    - identifier: artifactonotetext
      values:
      - "\u0412\u044B \u043D\u0430\u0448\u043B\u0438 \u0447\u0430\u0441\u0442\u044C
        \u0430\u0440\u0442\u0435\u0444\u0430\u043A\u0442\u0430"
      - You found part of an artifact
    - identifier: fullartifactonotetext
      values:
      - "\u0412\u044B \u043D\u0430\u0448\u043B\u0438 \u043F\u043E\u0441\u043B\u0435\u0434\u043D\u044E\u044E
        \u0447\u0430\u0441\u0442\u044C \u0430\u0440\u0442\u0435\u0444\u0430\u043A\u0442\u0430"
      - You found the last piece of the artifact
    - identifier: valutexchange
      values:
      - "\u041E\u0431\u043C\u0435\u043D \u043A\u0440\u0438\u0441\u0442\u0430\u043B\u043E\u0432"
      - Crystal exchange
    - identifier: entervalutlabel
      values:
      - "\u0412\u0432\u0435\u0434\u0438\u0442\u0435 \u043A\u043E\u043B\u0438\u0447\u0435\u0441\u0442\u0432\u043E
        \u043A\u0440\u0438\u0441\u0442\u0430\u043B\u043B\u043E\u0432"
      - Enter the number of crystals
    - identifier: yougetvaluelabel
      values:
      - "\u041F\u043E\u0441\u043B\u0435 \u043E\u0431\u043C\u0435\u043D\u0430 \u0432\u044B
        \u043F\u043E\u043B\u0443\u0447\u0438\u0442\u0435"
      - After the exchange, you will receive
    - identifier: exchangelabel
      values:
      - "\u041E\u0431\u043C\u0435\u043D\u044F\u0442\u044C!"
      - Exchange!
    - identifier: exchangeshoplabel
      values:
      - "\u041E\u0431\u043C\u0435\u043D \u043A\u0440\u0438\u0441\u0442\u0430\u043B\u043B\u043E\u0432"
      - Crystal exchange
    - identifier: exchangedescription
      values:
      - "\u041E\u0431\u043C\u0435\u043D\u044F\u0439\u0442\u0435 \u0441\u0432\u043E\u0438
        \u043A\u0440\u0438\u0441\u0442\u0430\u043B\u043B\u044B \u043D\u0430 \u0434\u0435\u043D\u044C\u0433\u0438!"
      - Exchange your crystals for money!
    - identifier: exchangebutton
      values:
      - "\u041D\u0430\u0447\u0430\u0442\u044C"
      - Begin
